dcterms:title,dcterms:created,dcterms:creator,nkl:dataType,nkl:dataFormat
ZFFU_38D2_430_067_407,2013-12-01,Arthur Dent,Image,AIFF PCM
AGWB_90p2_152_519_976,1944-02-10,Arthur Dent,StillImage,TXT UTF-8
KANQ_77F2_257_544_937,1975-12-07,Arthur Dent,Event,XDMF
RWIN_31g6_879_214_958,1948-02-14,Arthur Dent,Service,XSD
ADGQ_42V1_377_138_130,2006-07-05,Arthur Dent,InteractiveResource,FLAC FLAC 1.2.1
VEOA_88b3_762_404_475,1939-11-25,Arthur Dent,StillImage,APNG
YZRF_36t3_697_198_597,2022-10-18,Arthur Dent,Text,PDF 1.1
JXRX_89o7_084_440_579,1919-06-25,Arthur Dent,Event,MPEG-4 AAC
UOLO_73V6_928_219_825,1998-12-02,Arthur Dent,InteractiveResource,ODS 1.1
EUJE_12U4_937_630_285,1937-03-17,Arthur Dent,Service,TEI UTF-8 3.0.0
RGTD_51C6_535_284_932,1950-01-17,Arthur Dent,Dataset,PDF 1.4
UPLJ_64P8_296_507_354,1986-05-23,Arthur Dent,Service,ODT 1.2
LKLF_51N2_738_688_339,1946-04-18,Arthur Dent,PhysicalObject,PDFA 2a
TQLC_08N1_594_681_907,1926-05-18,Arthur Dent,Event,PLY ASCII 1.0
MKEC_32G5_220_336_888,1923-07-18,Arthur Dent,Collection,TIFF
CHDI_81x6_331_801_027,1931-08-30,Arthur Dent,MovingImage,PDFA 2a
MQCJ_38f6_878_528_744,1991-10-24,Arthur Dent,Sound,ODT 1.1
BFIE_57W6_328_833_439,2012-04-10,Arthur Dent,Text,PDF 1.6
FGAG_22b5_399_454_381,1962-02-20,Arthur Dent,Service,SVG UTF-8 1.0
ICSQ_35i1_864_259_200,1944-07-28,Arthur Dent,PhysicalObject,TIFF 5.0
TOEB_19J5_667_885_706,2023-05-18,Arthur Dent,Collection,FLAC FLAC 1.2.1
GMKP_74e7_599_572_123,2009-02-11,Arthur Dent,Sound,XDMF
FOLN_40x1_250_144_858,2022-10-07,Arthur Dent,Image,PDF 1.4
EBVP_64O6_698_069_200,1920-07-29,Arthur Dent,StillImage,HDF5 1.0
EUQC_73J3_942_216_484,1991-10-01,Arthur Dent,Sound,JPEG 1.00
PWMY_40P3_391_049_597,1992-04-09,Arthur Dent,PhysicalObject,FLAC FLAC 1.2.1
ZMGU_14t5_026_821_913,1979-07-04,Arthur Dent,InteractiveResource,PLY ASCII 1.0
CKXE_54G8_778_457_005,1955-07-26,Arthur Dent,InteractiveResource,MPEG-4 AVC
CJIO_35E5_263_402_199,1918-05-23,Arthur Dent,Collection,XML UTF-8 1.0
ETBR_05Q4_446_859_816,1941-09-14,Arthur Dent,Collection,AIFF PCM
HBGT_22K2_810_334_131,1934-06-29,Arthur Dent,Text,PLY ASCII 1.0
AQJH_87b7_439_416_527,2023-02-29,Arthur Dent,Service,GIF 87a
NXKM_72g2_229_606_989,1956-04-14,Arthur Dent,InteractiveResource,DAE UTF-8 1.4.1
JZGF_58S2_792_344_966,1995-07-30,Arthur Dent,Image,PDF 1.6
WJON_87u7_103_089_348,2011-06-24,Arthur Dent,Dataset,MKV AVC/FLAC
GUSG_27N9_452_791_025,1994-09-26,Arthur Dent,Dataset,TXT UTF-8
FKAY_95G4_452_881_077,1990-10-20,Arthur Dent,Image,GeoTIFF
BQJA_18k4_211_204_593,1952-12-27,Arthur Dent,Dataset,PDF 1.1
EWBP_38r1_488_674_469,1910-12-07,Arthur Dent,StillImage,JPEG 1.01
QFZJ_55I2_888_360_111,1943-09-28,Arthur Dent,Text,GIF 87a
VHTH_42x3_569_647_874,1954-11-24,Arthur Dent,StillImage,JPEG 1.01
EKHE_12i6_131_558_102,1953-09-23,Arthur Dent,MovingImage,PDFA 2b
ECTT_77B8_547_373_687,2019-06-29,Arthur Dent,InteractiveResource,XML UTF-8 1.0
REEM_15U8_263_176_467,1919-07-29,Arthur Dent,PhysicalObject,GIF 89a
VBTG_09L4_203_263_974,1936-07-03,Arthur Dent,Sound,TIFF
ZIKF_77M9_639_669_398,1969-07-31,Arthur Dent,Service,ODT 1.0
FGAW_38r2_221_196_227,1993-01-10,Arthur Dent,Sound,JPEG 1.02
WTWS_20d6_713_533_175,2011-01-15,Arthur Dent,PhysicalObject,ODT 1.2
XLXB_01g1_364_130_415,1971-06-09,Arthur Dent,InteractiveResource,PNG 1.0
KQNW_36P2_070_743_081,1968-10-21,Arthur Dent,MovingImage,TIFF 6.0
SUUX_34o7_607_983_664,1971-12-03,Arthur Dent,StillImage,OGG Vorbis
YSCP_46B8_644_110_231,2010-12-11,Arthur Dent,StillImage,DAE UTF-8 1.4.1
CAKX_62u6_760_110_752,1947-08-11,Arthur Dent,PhysicalObject,JPEG
ARAT_65K6_285_207_313,1928-06-02,Arthur Dent,Event,PDF 1.6
OCSN_40j5_444_354_753,1976-07-20,Arthur Dent,StillImage,PDF 1.1
TXHQ_22i3_968_784_503,1958-06-11,Arthur Dent,Collection,FLAC FLAC 1.2.1
DSJM_16J2_845_584_784,1931-12-16,Arthur Dent,MovingImage,WAV
XPXL_22Q7_109_940_809,1928-12-16,Arthur Dent,Collection,PDF 1.0
SFCX_05b8_675_806_357,2025-08-23,Arthur Dent,Image,PDF 1.3
JEKZ_40u8_710_304_441,1999-09-05,Arthur Dent,StillImage,XML UTF-8 1.0
XVLD_91y2_883_934_417,1964-04-01,Arthur Dent,InteractiveResource,XDMF
OLLQ_14E9_526_386_278,1963-09-21,Arthur Dent,Text,PDFA 3a
ASEW_59S2_934_894_437,2006-06-05,Arthur Dent,Collection,FLAC FLAC 1.2.1
KUMC_47k6_518_209_468,1970-03-24,Arthur Dent,Text,PLY ASCII 1.0
RQNP_18U2_795_459_246,1975-12-04,Arthur Dent,Software,AIFF PCM
BWGC_98i9_238_333_447,2019-03-24,Arthur Dent,Dataset,GIF 87a
HEIX_56d9_688_322_518,1921-05-16,Arthur Dent,Service,TIFF 4.0
ZNDJ_78z8_719_159_646,1933-05-18,Arthur Dent,Image,ODS 1.2
URIG_13u3_860_683_121,1997-01-19,Arthur Dent,Collection,MKV AVC/FLAC
YHHX_52H6_409_882_702,1946-07-30,Arthur Dent,InteractiveResource,PDF 1.4
BNEQ_98Y2_135_539_209,2011-08-28,Arthur Dent,Image,MPEG-4 AVC/AAC
LOXG_60X3_064_520_306,1943-08-24,Arthur Dent,Event,OGG Vorbis
BDWW_72E1_023_958_460,1927-07-16,Arthur Dent,StillImage,TXT UTF-8
VDYG_26a5_538_536_322,1995-07-20,Arthur Dent,Text,TEI UTF-8 3.1.0
HJOV_46B8_015_785_256,1942-08-28,Arthur Dent,PhysicalObject,JPEG
MIBU_50j7_707_257_451,1986-12-23,Arthur Dent,InteractiveResource,MPEG-4 AAC
TAUK_81C8_930_110_734,1964-09-29,Arthur Dent,Text,SVG UTF-8 1.2
YIBN_72G1_834_236_757,1921-11-17,Arthur Dent,Text,SVG UTF-8 1.1
MFDI_71L9_792_215_182,2022-10-13,Arthur Dent,Collection,OGG Vorbis
SXUD_45M1_948_804_585,1929-06-21,Arthur Dent,MovingImage,SVG UTF-8 1.1
UUWJ_04P1_510_781_390,1928-11-06,Arthur Dent,Event,XSD
LZZI_80i3_217_458_561,1978-09-07,Arthur Dent,MovingImage,MPEG-4 AVC/AAC
HUJI_63F5_068_584_793,1929-10-17,Arthur Dent,Software,JPEG
DFPT_16C1_780_328_413,2015-09-27,Arthur Dent,StillImage,PDF 1.3
HSYV_69l1_916_009_287,1991-10-22,Arthur Dent,Sound,HDF5 2.0
RDFX_59V6_412_901_503,1921-02-11,Arthur Dent,Software,XDMF
MGVH_17l4_525_337_620,1940-08-01,Arthur Dent,Sound,ODT 1.0
HDAD_16e2_591_089_403,2016-12-20,Arthur Dent,PhysicalObject,PDF 1.2
KTVK_02Q7_411_441_478,1958-08-17,Arthur Dent,StillImage,PDFA 2b
LTHA_96t9_391_920_453,1933-03-21,Arthur Dent,Service,TEI UTF-8 3.0.0
MPTJ_91A6_593_650_639,1947-08-14,Arthur Dent,PhysicalObject,PDFA 2b
UKBX_68i9_185_655_306,1996-01-31,Arthur Dent,MovingImage,PDFA 1b
MSYQ_80e2_317_853_964,1917-02-26,Arthur Dent,Dataset,SIARD
TZJV_03E7_721_367_120,1972-04-21,Arthur Dent,Text,OGG Vorbis
IIXL_53c9_900_850_193,1982-10-30,Arthur Dent,Text,HDF5 2.0
SQNV_60l4_515_443_775,2012-10-29,Arthur Dent,Dataset,GIF 87a
MQFO_61R5_763_255_327,1962-02-11,Arthur Dent,Software,XDMF
QOSQ_73U6_529_877_719,1985-02-08,Arthur Dent,Image,PDFA 3a
VFOR_95u5_866_869_445,1928-03-16,Arthur Dent,Service,PNG 1.0
EEYR_38O4_569_233_565,1967-06-30,Arthur Dent,InteractiveResource,SVG UTF-8 1.0
MYBS_93W3_406_950_216,1985-10-28,Arthur Dent,InteractiveResource,ODS 1.0
VUSK_54u8_567_330_542,1924-03-10,Arthur Dent,Software,HDF5 1.0
YMRN_13H7_780_590_332,1924-03-22,Arthur Dent,Event,TIFF 4.0
QVDK_21r7_318_291_329,1958-05-25,Arthur Dent,InteractiveResource,PDFA 3a
KBNS_83p7_575_445_830,1944-12-19,Arthur Dent,Service,PDF 1.3
NIBS_95K3_187_651_634,1941-09-20,Arthur Dent,Dataset,PDF 1.4
QVXJ_10p4_356_931_682,1913-03-23,Arthur Dent,PhysicalObject,PNG 1.0
ENSF_50v4_772_897_882,1933-11-20,Arthur Dent,Text,FLAC FLAC 1.2.1
KFVZ_68t6_028_117_586,1954-09-29,Arthur Dent,Dataset,PDFA 2b
ZPAY_18c5_477_085_083,1959-09-16,Arthur Dent,InteractiveResource,XDMF
OBBV_46E2_581_678_441,1923-12-24,Arthur Dent,Text,PDF 1.3
MXOT_97G4_307_166_933,1960-09-27,Arthur Dent,Collection,GeoTIFF
REXL_08x4_415_751_493,1980-05-16,Arthur Dent,StillImage,JPEG 1.00
RJLH_19P3_222_461_935,2002-09-22,Arthur Dent,Service,PDF 1.2
QRWG_04l2_426_653_503,2021-04-08,Arthur Dent,MovingImage,JPEG
SOZW_07n1_585_012_695,1954-06-15,Arthur Dent,Collection,JPEG 1.02
BYZM_12A5_487_836_433,1981-10-22,Arthur Dent,Text,AAC AAC
XDKS_84T2_052_720_268,2004-05-19,Arthur Dent,Sound,ODT 1.0
KWZZ_28z1_612_018_978,1912-10-17,Arthur Dent,Event,MPEG-4 AVC
HTTY_05i6_528_907_210,2010-03-25,Arthur Dent,Image,PDF 1.2
YFHM_85K5_212_306_680,1970-01-24,Arthur Dent,Collection,PDF 1.7
UHAB_77v9_338_419_514,2018-08-29,Arthur Dent,Image,GeoTIFF
NGRU_44a5_879_591_576,1926-05-03,Arthur Dent,InteractiveResource,TEI UTF-8 3.1.0
VRWZ_01A9_055_979_950,2010-02-30,Arthur Dent,Collection,MPEG-4 AVC/AAC LC
GVEP_21F3_120_982_449,2018-03-01,Arthur Dent,PhysicalObject,MPEG-4 AVC/AAC LC
SXNR_24D8_528_066_817,1939-10-26,Arthur Dent,Image,AAC AAC
WXQJ_97l3_358_649_619,1945-05-20,Arthur Dent,Sound,HDF5 2.0
VSEV_26r6_282_646_034,1936-11-14,Arthur Dent,Service,PNG 1.2
GGFE_37X9_302_605_408,1959-01-31,Arthur Dent,PhysicalObject,SVG UTF-8 1.2
EVXL_68u5_068_325_211,1986-09-14,Arthur Dent,InteractiveResource,PLY ASCII 1.0
QOME_80l8_116_945_179,1935-04-20,Arthur Dent,Service,JPEG 1.01
BSXE_60y4_215_182_408,1987-06-27,Arthur Dent,PhysicalObject,TIFF 6.0
YQRE_80N3_867_758_250,2017-12-19,Arthur Dent,Text,PDFA 1b
QBLU_65V7_986_227_966,1977-04-09,Arthur Dent,Dataset,TIFF 6.0
LGVD_85b3_063_496_193,1914-08-19,Arthur Dent,Sound,TEI UTF-8 3.1.0
UGKK_02g4_088_479_965,1933-07-04,Arthur Dent,Sound,TIFF 5.0
PQUF_27g8_688_564_114,1963-12-18,Arthur Dent,Dataset,ODS 1.1
SDUN_51q3_219_553_293,2002-04-01,Arthur Dent,Text,OGG Theora/Vorbis
FROE_37E4_747_355_106,1920-03-29,Arthur Dent,Software,XSD
SYBZ_67w6_577_233_334,1992-07-11,Arthur Dent,PhysicalObject,PDF 1.4
GEQE_35D7_442_763_429,1989-11-29,Arthur Dent,Image,ODT 1.0
OWUH_42h9_232_139_530,2018-06-06,Arthur Dent,Collection,GIF 87a
WRKJ_30R5_716_307_320,1926-11-02,Arthur Dent,Sound,HDF5 1.0
MYSD_71x9_409_156_713,1911-11-15,Arthur Dent,PhysicalObject,APNG
HMWN_18e2_240_530_268,1938-12-14,Arthur Dent,PhysicalObject,TIFF
HFDJ_83D5_929_339_663,1994-04-06,Arthur Dent,InteractiveResource,SVG UTF-8 1.0
ZNNV_19h1_757_412_762,1939-02-16,Arthur Dent,Collection,XSD
OAKM_55S1_246_738_001,1918-10-16,Arthur Dent,InteractiveResource,PNG 1.2
OUQR_51f9_653_914_721,1911-12-22,Arthur Dent,MovingImage,APNG
BSGT_69Y9_783_423_126,1915-02-01,Arthur Dent,PhysicalObject,PDFA 3a
XUCJ_07V8_165_826_897,1971-10-14,Arthur Dent,Event,PDF 1.5
PQGA_90k2_739_694_750,1967-04-03,Arthur Dent,Software,PDF 1.7
FGQJ_09F4_978_884_492,1949-01-23,Arthur Dent,Event,PDFA 1a
LDIW_95S2_511_297_613,2014-11-14,Arthur Dent,MovingImage,PDFA 1b
XCKP_80z8_079_615_800,1916-09-15,Arthur Dent,Service,HDF5 1.0
TESE_29a7_389_356_078,1942-09-19,Arthur Dent,Dataset,JPEG
RLQY_75C3_008_232_649,1943-12-31,Arthur Dent,Service,MPEG-4 AAC
HGJY_02Z3_822_186_566,1929-06-20,Arthur Dent,Text,DAE UTF-8 1.4.1
NFPD_03r8_027_226_402,1910-10-24,Arthur Dent,Dataset,HDF5 1.0
XNUX_73C2_515_398_389,2002-04-06,Arthur Dent,StillImage,OGG Vorbis
LZKU_89G9_092_386_244,1924-02-15,Arthur Dent,Sound,GeoTIFF
VORR_60s6_395_663_187,1929-12-20,Arthur Dent,InteractiveResource,MPEG-4 AAC
JJFY_53I6_075_441_555,1949-04-19,Arthur Dent,Text,TEI UTF-8 3.0.0
GDHZ_80H6_915_593_360,1955-12-13,Arthur Dent,PhysicalObject,ODT 1.1
NFLA_83z1_222_509_928,1922-09-28,Arthur Dent,Image,PDFA 1a
YQSP_23B7_038_531_006,1927-10-16,Arthur Dent,Sound,SVG UTF-8 1.2
WWQW_69t3_537_317_654,1955-02-16,Arthur Dent,Collection,FLAC FLAC 1.2.1
ALHZ_97h9_903_267_473,1918-08-10,Arthur Dent,Dataset,GIF 89a
ZORN_61S2_233_151_899,1993-04-12,Arthur Dent,Text,PLY ASCII 1.0
NYCS_31Y1_310_894_587,1971-12-05,Arthur Dent,StillImage,XDMF
NPZS_99Q5_831_451_055,1922-12-02,Arthur Dent,Service,XSD
UHJD_91k3_918_415_688,1982-02-01,Arthur Dent,Software,JPEG2000
QOEQ_35c7_042_288_973,1945-11-13,Arthur Dent,MovingImage,JPEG
EBLM_57S1_158_726_632,1991-02-31,Arthur Dent,PhysicalObject,ODS 1.0
CCBS_02c3_549_044_605,2008-12-27,Arthur Dent,PhysicalObject,TXT UTF-8
PPZU_79z2_345_142_155,1977-07-05,Arthur Dent,Dataset,GIF 89a
ULBE_78O5_014_137_426,1967-03-25,Arthur Dent,Service,ODT 1.1
XRWD_28e3_398_487_757,1937-11-29,Arthur Dent,Collection,JPEG
PGVC_63N6_931_088_869,1976-02-09,Arthur Dent,Sound,GeoTIFF
QEFA_76a9_784_900_657,2005-06-31,Arthur Dent,Event,PDF 1.6
WWXX_51V5_442_650_287,2021-10-15,Arthur Dent,Software,XML UTF-8 1.0
AIYW_51Z9_981_523_517,1920-07-10,Arthur Dent,PhysicalObject,WAV
VGPL_06F8_363_481_355,1952-06-23,Arthur Dent,Text,XSD
ACGF_16G4_710_186_754,1930-05-06,Arthur Dent,MovingImage,PDF 1.1
QMUS_84I3_037_846_889,2011-04-04,Arthur Dent,Event,GIF 89a
GFSK_38v7_967_904_606,1962-05-15,Arthur Dent,Text,MPEG-4 AVC
XLEZ_98y4_837_299_333,1921-05-08,Arthur Dent,Collection,PDF 1.0
UZSZ_68P8_135_169_928,1987-11-25,Arthur Dent,Collection,TIFF
DQFQ_01G2_789_615_799,1934-10-01,Arthur Dent,Event,PDF 1.7
HKSJ_03Y5_237_062_158,1911-02-10,Arthur Dent,Sound,PNG 1.2
PQPN_51u1_687_787_977,2012-04-29,Arthur Dent,Collection,MPEG-4 AVC/AAC LC
DROG_39u8_866_231_041,1993-04-05,Arthur Dent,Software,TIFF 4.0
DQDR_19p1_345_912_110,1929-09-03,Arthur Dent,Text,PDF 1.2
YCGZ_17P3_116_743_524,1966-09-23,Arthur Dent,Dataset,GIF 87a
VTHC_96J4_177_219_744,1940-07-28,Arthur Dent,PhysicalObject,ODT 1.1
KRDP_94V1_892_195_447,1935-12-13,Arthur Dent,StillImage,JPEG 1.01
ENGL_94K9_973_732_255,1935-01-20,Arthur Dent,MovingImage,TEI UTF-8 3.0.0
MVGT_06E6_172_200_793,1943-02-12,Arthur Dent,Text,GeoTIFF
HOPS_89X9_854_481_193,1936-08-14,Arthur Dent,Dataset,GIF 87a
TXFS_39M4_045_560_909,1930-12-22,Arthur Dent,Dataset,TXT UTF-8
VXKS_49Q5_149_198_128,1991-02-21,Arthur Dent,MovingImage,MPEG-4 AVC
RZAM_90P7_657_372_865,2000-04-30,Arthur Dent,Text,TEI UTF-8 3.1.0
XSGF_98R5_818_236_860,1998-04-19,Arthur Dent,Image,SVG UTF-8 1.1
JOYO_50s4_680_110_679,2001-10-06,Arthur Dent,PhysicalObject,ODS 1.0
JMKD_14b5_675_043_085,1934-03-17,Arthur Dent,Sound,MPEG-4 AAC
IEYA_33V8_073_988_335,1992-07-18,Arthur Dent,Collection,PDFA 1b
XOWL_55A4_148_361_251,2004-12-22,Arthur Dent,Software,GIF 89a
BJOK_27H8_531_779_271,2017-05-04,Arthur Dent,PhysicalObject,WAV
DGUP_64o2_274_537_040,1970-10-25,Arthur Dent,InteractiveResource,SVG UTF-8 1.2
DXGV_79E7_177_648_606,2003-03-15,Arthur Dent,Collection,MPEG-4 AVC/AAC LC
CTWE_96V1_122_754_624,1988-01-08,Arthur Dent,Collection,PDF 1.3
DKLI_56e1_693_724_254,1999-10-14,Arthur Dent,Collection,SVG UTF-8 1.2
SVNF_37n5_121_872_744,1952-09-11,Arthur Dent,Dataset,WAV
WFRH_75g7_460_186_709,1997-09-16,Arthur Dent,PhysicalObject,GIF 87a
UHSF_23n3_261_261_533,1936-10-06,Arthur Dent,InteractiveResource,GeoTIFF
VPUN_06U2_297_722_632,2013-08-01,Arthur Dent,MovingImage,SIARD
CSXV_10n2_058_413_258,1991-09-03,Arthur Dent,Collection,SIARD
BOLX_64t4_583_876_631,2001-05-06,Arthur Dent,InteractiveResource,HDF5 1.0
SPHW_64Q7_014_220_202,1919-09-25,Arthur Dent,StillImage,SVG UTF-8 1.0
UNPR_61C8_876_218_034,1960-10-08,Arthur Dent,Software,JPEG
BZPW_07G6_218_442_469,1982-12-27,Arthur Dent,Collection,PDF 1.5
LDVG_19S4_763_620_718,1937-05-05,Arthur Dent,Image,APNG
YQGV_72X9_719_195_291,1936-12-02,Arthur Dent,Sound,PDF 1.7
LDWD_43K9_053_383_466,1939-02-20,Arthur Dent,MovingImage,PDFA 2a
UMOS_10Y4_590_644_010,2008-02-01,Arthur Dent,Dataset,PDF 1.3
KTYX_92J6_099_614_582,1962-05-27,Arthur Dent,Event,PDFA 2u
VFLA_93L1_603_696_178,1931-06-31,Arthur Dent,StillImage,AIFF PCM
PPRZ_02y5_722_334_437,1939-08-14,Arthur Dent,InteractiveResource,JPEG 1.01
DMAZ_63O7_663_984_594,1957-11-31,Arthur Dent,Text,PLY ASCII 1.0
UONO_75c6_869_184_334,1990-12-12,Arthur Dent,MovingImage,ODS 1.0
QDZO_03T2_368_267_539,1939-02-25,Arthur Dent,Text,HDF5 2.0
EAIR_25f1_724_293_164,2010-05-30,Arthur Dent,Text,PDF 1.0
XYOQ_97G7_668_378_432,1988-04-21,Arthur Dent,Service,OGG Vorbis
UCNJ_87O5_278_056_296,1966-07-10,Arthur Dent,InteractiveResource,PDF 1.3
WRXL_95n4_493_446_575,1942-08-25,Arthur Dent,Service,JPEG 1.02
TTNY_27h5_766_603_652,1965-04-05,Arthur Dent,InteractiveResource,PNG 1.1
KCLF_96T2_455_827_533,1991-03-23,Arthur Dent,PhysicalObject,MPEG-4 AVC/AAC
XMNW_70Y8_216_284_278,1951-05-11,Arthur Dent,InteractiveResource,ODS 1.0
UUFB_10z2_301_045_295,2009-01-11,Arthur Dent,Text,JPEG 1.01
XAUT_95b8_994_973_825,1993-11-20,Arthur Dent,Software,PDFA 1b
GDZH_65H5_988_161_155,1984-11-13,Arthur Dent,Software,WAV
TBVJ_11I2_331_317_885,1918-05-03,Arthur Dent,Event,GIF 89a
YGHM_09C8_246_216_660,2013-05-20,Arthur Dent,Image,PDFA 2u
TUPC_07D8_043_031_121,2004-12-08,Arthur Dent,Image,TIFF 6.0
RKCM_85B2_383_039_454,1910-08-08,Arthur Dent,Text,JPEG 1.01
APZV_64O4_989_657_605,1999-04-21,Arthur Dent,Dataset,JPEG 1.02
AHPF_74g3_405_005_817,1958-02-21,Arthur Dent,Service,OGG Vorbis
JBGV_34I2_930_543_746,1918-01-08,Arthur Dent,StillImage,AAC AAC
MBTA_03x2_384_262_818,1924-09-28,Arthur Dent,MovingImage,PDF 1.2
BFJV_30Z8_494_129_871,1927-02-06,Arthur Dent,Text,ODS 1.1
QDDQ_17k4_393_989_109,1973-10-04,Arthur Dent,StillImage,GIF 89a
TCGM_29u6_968_902_493,1926-03-21,Arthur Dent,MovingImage,PDF 1.5
AWGR_09P5_353_039_112,1970-10-25,Arthur Dent,Collection,XSD
RURU_36C4_471_320_277,1972-03-02,Arthur Dent,Service,PDF 1.3
BMHI_09i1_545_149_424,2003-01-12,Arthur Dent,Service,SIARD
CKKQ_26Y3_065_294_788,1969-10-14,Arthur Dent,StillImage,JPEG
XNBA_21X5_545_260_999,2005-05-11,Arthur Dent,Collection,ODS 1.0
YUYE_57V1_012_718_618,1986-06-06,Arthur Dent,Service,PLY ASCII 1.0
TBWP_34F7_031_904_971,2011-02-10,Arthur Dent,Software,PDF 1.4
YQIX_46C5_046_279_673,1941-08-16,Arthur Dent,InteractiveResource,MPEG-4 AAC
ZBXX_45q6_428_424_319,1942-07-12,Arthur Dent,Sound,PDFA 1b
OAOD_16E6_601_262_641,1987-10-12,Arthur Dent,Software,PLY ASCII 1.0
UPJZ_62v6_329_695_919,1987-04-07,Arthur Dent,Dataset,PDFA 1b
WJME_96F6_040_979_418,1919-12-26,Arthur Dent,Image,HDF5 1.0
QSHU_50K4_252_941_832,1956-07-25,Arthur Dent,InteractiveResource,PDFA 2b
BAOP_52Q3_639_022_481,1931-10-03,Arthur Dent,Sound,GIF 89a
UIEP_59R4_697_867_442,1959-11-03,Arthur Dent,Service,PDF 1.0
HDQA_89G9_617_554_734,1919-06-14,Arthur Dent,Dataset,XDMF
JJNI_27Y7_150_280_416,2006-10-24,Arthur Dent,PhysicalObject,GeoTIFF
PHKS_40g8_718_377_405,1998-06-09,Arthur Dent,Image,JPEG 1.02
QFDN_91Y1_431_136_649,1941-09-04,Arthur Dent,Service,MPEG-4 AVC/AAC LC
PFDW_21K6_730_322_115,1929-05-28,Arthur Dent,Event,PDFA 2a
MKON_74p5_137_775_400,1992-05-11,Arthur Dent,Text,PDFA 2b
XNDF_47X9_133_769_074,1932-04-24,Arthur Dent,Event,SVG UTF-8 1.2
HBJR_17D4_631_228_198,1943-04-23,Arthur Dent,InteractiveResource,PDFA 1b
DUOA_84W8_860_218_510,1933-01-20,Arthur Dent,Collection,JPEG 1.02
YBWP_52S3_826_771_877,1986-10-08,Arthur Dent,Event,HDF5 1.0
WWAW_14b5_232_107_194,1955-11-07,Arthur Dent,Software,JPEG 1.02
NKRL_95n1_231_062_424,1916-03-09,Arthur Dent,Image,WAV
OFEW_37w9_376_558_597,1966-12-02,Arthur Dent,MovingImage,AAC AAC
UYBI_66V6_131_713_334,2003-11-04,Arthur Dent,Dataset,PDF 1.6
DOTS_33N6_883_834_077,2024-08-25,Arthur Dent,Event,ODS 1.0
NEEH_70r7_833_499_552,2000-07-03,Arthur Dent,Software,PLY ASCII 1.0
DSBF_65R1_982_454_383,1985-06-14,Arthur Dent,Sound,ODT 1.0
SZLY_73Z3_081_341_159,1944-09-08,Arthur Dent,Text,PDF 1.0
JFJO_76C5_927_856_958,1914-01-04,Arthur Dent,StillImage,PDFA 2a
TBGX_99c8_885_682_043,1996-07-12,Arthur Dent,Sound,ODT 1.0
MXPW_56p9_561_711_076,2025-06-15,Arthur Dent,PhysicalObject,ODT 1.0
UEEJ_91C9_669_475_601,1919-08-28,Arthur Dent,PhysicalObject,WAV
COEP_54a3_015_822_058,1978-09-20,Arthur Dent,Image,PDF 1.2
CRPG_81O7_861_288_912,1917-07-23,Arthur Dent,MovingImage,PDF 1.2
LORY_27J2_242_810_220,1936-11-12,Arthur Dent,Event,TXT UTF-8
WLJU_38A1_214_707_637,1992-08-31,Arthur Dent,Collection,PDFA 3a
OGYH_43G6_531_566_046,1965-02-01,Arthur Dent,Dataset,ODT 1.1
BBJP_52T6_526_781_800,1994-09-05,Arthur Dent,PhysicalObject,PDFA 2b
BUDF_26v1_084_679_297,1989-11-03,Arthur Dent,Dataset,JPEG 1.02
VIRS_89h9_055_366_855,1924-02-29,Arthur Dent,InteractiveResource,PDF 1.2
DAUM_33Y9_977_913_457,1996-04-28,Arthur Dent,Service,JPEG 1.02
MOIM_72g4_470_596_671,1921-05-26,Arthur Dent,Collection,AIFF PCM
FKBU_89l4_913_485_460,1999-03-14,Arthur Dent,Sound,ODT 1.2
BSIV_61N1_177_809_874,1967-05-13,Arthur Dent,PhysicalObject,JPEG
NTUZ_87x4_842_692_922,1918-05-29,Arthur Dent,InteractiveResource,MPEG-4 AVC
BLHF_14u8_858_289_421,1971-12-11,Arthur Dent,Text,PDF 1.1
OBSX_77Y6_040_870_127,1921-11-16,Arthur Dent,Image,MPEG-4 AVC/AAC
LHSM_40Y9_046_959_543,1911-02-03,Arthur Dent,PhysicalObject,MKV AVC/FLAC
TUUT_56m6_213_821_607,1985-11-04,Arthur Dent,InteractiveResource,JPEG 1.02
RFGF_08p8_461_164_443,2019-07-17,Arthur Dent,Collection,AAC AAC
JWFC_76L9_056_827_712,1933-06-30,Arthur Dent,Collection,PDFA 3a
CAAN_35w3_104_096_959,1956-04-21,Arthur Dent,MovingImage,XDMF
QBFP_45z7_001_174_645,1988-10-05,Arthur Dent,InteractiveResource,TXT UTF-8
WEEN_33f2_020_832_766,1993-08-27,Arthur Dent,InteractiveResource,AAC AAC
OEDL_54w1_606_905_511,1946-08-11,Arthur Dent,InteractiveResource,JPEG
XEEX_67i2_299_118_095,1948-08-08,Arthur Dent,PhysicalObject,JPEG2000
PGHM_43K5_257_438_592,2003-02-07,Arthur Dent,Collection,ODS 1.0
XFRK_82Z8_432_661_372,1966-07-19,Arthur Dent,Software,PDFA 1a
XRZW_47i5_900_800_532,1913-10-03,Arthur Dent,Text,PDF 1.3
TVZG_32k6_737_456_955,1976-07-22,Arthur Dent,Service,ODS 1.2
HTUZ_30f9_557_340_682,1943-07-19,Arthur Dent,Collection,JPEG 1.00
QKYG_73o2_640_660_207,1945-06-11,Arthur Dent,Dataset,TEI UTF-8 3.0.0
IPXR_79M4_253_653_687,1977-03-19,Arthur Dent,Software,TEI UTF-8 3.0.0
KOXL_36a8_773_445_942,1972-09-11,Arthur Dent,StillImage,TIFF 4.0
AUYS_33D7_596_498_005,1957-04-18,Arthur Dent,Event,PDFA 3a
NYJU_52V1_607_320_359,2004-12-21,Arthur Dent,StillImage,MPEG-4 AVC/AAC
ITLP_34L3_280_409_953,1985-10-12,Arthur Dent,Image,HDF5 2.0
BKVR_83n7_628_729_595,1959-01-25,Arthur Dent,Software,AAC AAC
DYKI_08A7_668_826_816,1965-07-14,Arthur Dent,Software,TXT UTF-8
LCDE_85D6_644_489_969,1936-11-05,Arthur Dent,Service,TIFF 4.0
CMUD_42i4_252_242_032,1912-02-21,Arthur Dent,PhysicalObject,APNG
KHCC_92r9_534_214_283,1930-03-18,Arthur Dent,Image,HDF5 1.0
CRHM_02P5_931_885_987,1979-12-04,Arthur Dent,Event,SVG UTF-8 1.1
QLRR_45L3_512_982_773,1943-11-02,Arthur Dent,InteractiveResource,GeoTIFF
RNGG_79N4_296_758_956,1949-07-30,Arthur Dent,Sound,SVG UTF-8 1.2
YEFW_61q8_831_495_525,1989-03-17,Arthur Dent,MovingImage,TIFF 5.0
NDAB_98j8_267_933_826,1981-04-29,Arthur Dent,PhysicalObject,PDF 1.1
IEQI_33g8_162_642_859,2003-11-15,Arthur Dent,InteractiveResource,ODS 1.0
VDOS_66I8_056_526_462,1925-02-12,Arthur Dent,Collection,PNG 1.2
MPPS_55u5_923_229_604,1997-03-14,Arthur Dent,InteractiveResource,PDF 1.0
AVIK_89u9_317_946_664,1939-01-12,Arthur Dent,Software,ODT 1.2
TIIN_89P7_386_668_549,2025-02-10,Arthur Dent,Event,PDF 1.4
NWRP_71Y2_608_149_094,1929-08-19,Arthur Dent,Dataset,ODT 1.2
SEMU_21G8_506_288_428,1944-07-15,Arthur Dent,Collection,GIF 89a
XAJA_11B3_441_942_811,1992-06-16,Arthur Dent,Sound,PDF 1.4
IERA_91C4_044_175_902,1931-05-10,Arthur Dent,Text,SVG UTF-8 1.2
KHWY_85a1_906_628_474,1963-01-04,Arthur Dent,Sound,DAE UTF-8 1.4.1
LKLZ_48C1_279_606_101,1919-05-06,Arthur Dent,Event,PNG 1.1
TCNA_78V3_790_933_358,1983-12-07,Arthur Dent,Software,PDF 1.6
IQGS_41u3_839_827_313,1925-08-01,Arthur Dent,Sound,SIARD
ERLF_95V6_076_065_139,1953-07-20,Arthur Dent,Event,PDFA 2a
LJLY_82r6_102_861_772,1970-10-15,Arthur Dent,Dataset,DAE UTF-8 1.4.1
PJFM_05f9_035_052_476,1952-02-22,Arthur Dent,Image,PDF 1.2
YEGN_45H2_933_508_445,2002-05-23,Arthur Dent,Collection,PDFA 1b
DSWZ_67v2_682_939_204,1915-05-16,Arthur Dent,Dataset,PNG 1.1
MXPN_27Z7_370_340_770,1971-01-26,Arthur Dent,StillImage,MPEG-4 AVC/AAC
DTPK_06L2_984_223_547,1955-12-28,Arthur Dent,Sound,XDMF
EVDW_54c6_273_254_867,1934-01-12,Arthur Dent,PhysicalObject,JPEG 1.01
MSFC_79y9_318_409_920,1944-09-21,Arthur Dent,Software,GeoTIFF
FUHN_65R3_912_197_281,1998-01-07,Arthur Dent,Event,GIF 89a
UFIP_89f8_607_234_545,1944-09-19,Arthur Dent,Service,DAE UTF-8 1.4.1
NLEG_95C3_239_261_965,1927-12-28,Arthur Dent,PhysicalObject,JPEG 1.02
VYGT_08x8_307_261_348,1996-07-03,Arthur Dent,StillImage,AIFF PCM
FNXX_47z9_947_775_678,1944-01-31,Arthur Dent,Image,PLY ASCII 1.0
YXNH_41k8_239_014_257,1951-12-24,Arthur Dent,MovingImage,PDFA 2u
BCVM_93w8_005_117_008,1980-08-15,Arthur Dent,Service,JPEG 1.01
NPMC_99W8_439_942_443,1999-08-20,Arthur Dent,Image,AIFF PCM
EMCH_89W7_054_260_340,1964-08-27,Arthur Dent,Collection,HDF5 2.0
TNSL_43t1_855_832_476,1939-08-08,Arthur Dent,Software,GIF 89a
XXBT_51G3_569_789_475,1942-05-15,Arthur Dent,Software,OGG Vorbis
ZLIA_17J4_307_085_079,2006-12-03,Arthur Dent,Service,HDF5 1.0
AWTH_40y1_765_272_700,1963-12-19,Arthur Dent,Dataset,XML UTF-8 1.0
KLPQ_47i5_425_376_709,1932-02-07,Arthur Dent,Sound,TXT UTF-8
UNHG_41X1_787_450_442,1913-03-13,Arthur Dent,Image,APNG
JQTD_44O9_783_124_661,1953-09-11,Arthur Dent,Software,ODS 1.2
UNJS_51n8_542_476_861,1980-03-11,Arthur Dent,Sound,PDFA 2b
KYFL_80f6_094_577_924,2011-04-16,Arthur Dent,Sound,PNG 1.1
FIMB_04z4_873_083_408,1996-10-23,Arthur Dent,PhysicalObject,TEI UTF-8 3.1.0
PKDS_60N9_226_409_723,1932-04-18,Arthur Dent,Event,XSD
FEHG_05U3_476_413_639,1981-11-13,Arthur Dent,PhysicalObject,SVG UTF-8 1.2
BTJX_59W4_662_319_759,1980-09-21,Arthur Dent,Event,PNG 1.2
YDQN_64H2_604_930_662,1933-04-26,Arthur Dent,Sound,JPEG 1.01
PCIL_08z6_725_784_465,1913-10-27,Arthur Dent,Sound,TIFF 5.0
AKPP_93Z1_829_095_479,2015-10-03,Arthur Dent,Software,TIFF 6.0
DLTV_77b5_620_118_981,1935-08-10,Arthur Dent,Image,PNG 1.2
PVJM_15h8_082_360_136,1995-11-11,Arthur Dent,Sound,PDFA 1a
JLWP_08P9_099_821_968,2017-07-15,Arthur Dent,PhysicalObject,AIFF PCM
FGJC_63r4_533_395_759,2001-04-10,Arthur Dent,Text,PDFA 2b
ROPF_59g2_434_866_170,1939-03-22,Arthur Dent,StillImage,TIFF 4.0
RGKZ_32V4_829_664_688,1916-04-10,Arthur Dent,Event,PDF 1.0
EVCT_98i8_986_304_858,1939-02-15,Arthur Dent,Sound,ODS 1.0
NIXR_25U7_150_119_263,2009-11-28,Arthur Dent,StillImage,HDF5 1.0
KRGD_74h2_895_514_310,2023-10-12,Arthur Dent,Collection,PNG 1.1
ERRM_44k8_502_356_874,1956-07-08,Arthur Dent,Image,JPEG
GTUF_41m1_774_757_730,1935-01-20,Arthur Dent,Sound,AAC AAC
FZHB_42U9_698_034_399,1999-12-25,Arthur Dent,Service,PDFA 2a
XMMM_82F7_144_652_761,2017-12-25,Arthur Dent,MovingImage,TIFF 5.0
UJID_87J5_923_895_738,1955-11-12,Arthur Dent,Software,HDF5 1.0
QDKM_64D2_444_689_318,2015-12-07,Arthur Dent,Dataset,PDF 1.0
FBUJ_86u4_923_265_952,1995-07-14,Arthur Dent,Event,HDF5 1.0
SJAH_99Y4_602_664_511,2007-04-10,Arthur Dent,Software,TIFF 5.0
GPYF_33U4_083_392_802,2021-06-07,Arthur Dent,Collection,PDF 1.4
KUPD_19p9_337_193_217,2014-09-17,Arthur Dent,InteractiveResource,PDF 1.2
KNRJ_39w2_363_758_501,1933-08-10,Arthur Dent,Software,TIFF 6.0
VBNH_31a4_739_729_713,1985-05-20,Arthur Dent,InteractiveResource,JPEG 1.02
LZUT_34Z1_249_816_953,1993-08-12,Arthur Dent,Event,JPEG 1.02
BDKP_37g1_645_790_751,1974-12-11,Arthur Dent,Event,PNG 1.2
HNCY_43O7_530_768_675,2006-02-14,Arthur Dent,Image,PDF 1.4
FPHV_47F7_151_134_470,1948-08-19,Arthur Dent,Text,PNG 1.0
LKKL_91d4_347_420_269,1994-04-29,Arthur Dent,Image,PDFA 1a
SOOT_87e1_495_879_334,1966-02-01,Arthur Dent,Service,HDF5 2.0
WSSN_88z3_115_470_609,2023-02-24,Arthur Dent,Service,PDF 1.4
EIOS_03E1_118_124_879,2007-08-10,Arthur Dent,MovingImage,JPEG2000
KLDP_65e1_063_713_632,1942-10-17,Arthur Dent,Collection,SVG UTF-8 1.1
DKXI_35c4_980_230_015,1922-10-14,Arthur Dent,Image,ODT 1.1
UKCF_30o5_178_573_432,1919-04-03,Arthur Dent,Event,PDF 1.3
UNXF_97b6_385_245_858,1933-07-26,Arthur Dent,Dataset,PDF 1.7
ZYWU_78u4_747_130_154,1999-01-05,Arthur Dent,Dataset,SVG UTF-8 1.0
SCST_90Y8_896_526_806,1952-02-14,Arthur Dent,PhysicalObject,XDMF
TCAG_72t6_398_830_938,1944-01-17,Arthur Dent,Collection,DAE UTF-8 1.4.1
LDWW_41f6_008_662_603,1950-10-01,Arthur Dent,Sound,TIFF
LURC_18X6_196_509_233,1941-08-27,Arthur Dent,Dataset,GIF 87a
NVKQ_98S9_551_713_837,1999-03-08,Arthur Dent,Service,OGG Vorbis
VZHJ_17J5_436_408_621,1989-07-05,Arthur Dent,Image,OGG Theora/Vorbis
BDVN_44X9_630_935_234,1918-10-11,Arthur Dent,Software,PNG 1.0
GDRP_55O8_908_172_713,1966-09-29,Arthur Dent,MovingImage,AIFF PCM
WGGT_95y2_449_976_574,2013-01-14,Arthur Dent,Software,ODS 1.0
BTHN_80g5_758_295_746,1946-11-11,Arthur Dent,Event,XSD
QIEL_64x1_689_836_270,1975-04-07,Arthur Dent,StillImage,PDFA 2a
JHKM_32m1_257_106_358,2013-05-31,Arthur Dent,Text,PDFA 3a
REJJ_93f5_684_652_766,2021-02-06,Arthur Dent,Service,PNG 1.1
LVZV_55Y8_729_824_901,1990-10-16,Arthur Dent,Dataset,JPEG 1.01
ZAHG_79g4_376_050_690,1994-12-26,Arthur Dent,MovingImage,PDF 1.2
NKOO_07B9_814_912_476,1950-05-13,Arthur Dent,StillImage,PDF 1.3
ZPIP_41O3_077_760_627,1987-02-16,Arthur Dent,PhysicalObject,JPEG
TMJN_60r2_050_070_584,1971-04-27,Arthur Dent,StillImage,MPEG-4 AVC
CJWP_16c2_886_118_634,2025-10-25,Arthur Dent,Software,PDFA 1b
YJTK_92x4_479_418_730,1987-03-24,Arthur Dent,MovingImage,SVG UTF-8 1.0
BPTF_50J7_871_500_962,1959-01-08,Arthur Dent,PhysicalObject,PDFA 2a
PYWT_31N7_904_339_528,1989-08-21,Arthur Dent,Software,SVG UTF-8 1.2
CGLV_27q3_357_289_768,1920-10-03,Arthur Dent,InteractiveResource,TXT UTF-8
PZHF_01N5_913_970_348,1979-01-22,Arthur Dent,Collection,PDFA 2u
MYWS_65l5_191_076_790,1947-03-17,Arthur Dent,MovingImage,APNG
QDJO_03N7_192_133_167,1971-09-15,Arthur Dent,StillImage,JPEG 1.01
CIOX_98g4_275_770_933,1925-07-26,Arthur Dent,PhysicalObject,PDF 1.7
WOLQ_33T5_653_363_754,1944-04-22,Arthur Dent,StillImage,WAV
QHIU_65C2_555_404_907,1941-07-08,Arthur Dent,InteractiveResource,JPEG2000
TRHQ_80J7_852_109_507,1963-02-07,Arthur Dent,Dataset,OGG Vorbis
QDZS_98Z4_812_741_974,1974-05-09,Arthur Dent,Sound,PDF 1.3
FOSC_84O3_057_475_212,1944-12-07,Arthur Dent,PhysicalObject,SIARD
OYAP_10b8_058_023_668,1972-01-04,Arthur Dent,Image,JPEG
UZIP_72m6_124_876_489,2021-04-03,Arthur Dent,MovingImage,MPEG-4 AVC
INSI_34b4_803_928_320,1916-01-30,Arthur Dent,PhysicalObject,TIFF 6.0
GPCZ_11T1_910_453_703,1929-12-11,Arthur Dent,Dataset,JPEG
WSYF_58G6_310_603_445,1976-04-15,Arthur Dent,MovingImage,ODT 1.0
NSTD_61k8_072_342_380,2016-11-12,Arthur Dent,Sound,PDFA 1a
VJBY_64r8_194_646_771,1929-06-28,Arthur Dent,InteractiveResource,TXT UTF-8
BNRU_20o1_116_837_409,1941-08-01,Arthur Dent,Dataset,XML UTF-8 1.0
IXVJ_01B3_438_541_858,1931-05-18,Arthur Dent,Collection,PDF 1.0
XYJR_69G6_931_455_308,1910-01-14,Arthur Dent,StillImage,PLY ASCII 1.0
YVTW_62n7_428_996_839,1958-03-22,Arthur Dent,StillImage,JPEG 1.02
PJVR_09c9_308_634_194,1932-06-08,Arthur Dent,Service,ODS 1.2
PZMA_57V6_637_594_639,1965-04-22,Arthur Dent,Text,PDFA 2a
IXCK_85Z6_847_792_232,1965-07-30,Arthur Dent,Dataset,MPEG-4 AVC
WUNH_89H5_290_624_084,2018-08-26,Arthur Dent,Image,SVG UTF-8 1.0
DYJI_30L9_076_573_927,1942-03-11,Arthur Dent,Software,PDFA 3a
WJGT_58x3_644_800_653,1924-07-18,Arthur Dent,Sound,JPEG
QDPE_19I8_504_369_696,1922-04-15,Arthur Dent,Image,TIFF 5.0
MEDA_82U9_161_194_890,2006-08-16,Arthur Dent,StillImage,PNG 1.1
OBSF_42V4_214_020_532,1989-09-02,Arthur Dent,Service,TIFF 5.0
CTPP_95T1_095_771_809,2014-12-16,Arthur Dent,Collection,ODT 1.0
ZWWH_12f9_794_890_738,1924-05-26,Arthur Dent,Event,FLAC FLAC 1.2.1
LGKT_46y9_425_863_652,2012-06-22,Arthur Dent,Collection,PLY ASCII 1.0
NLYI_95p6_387_685_079,1920-07-31,Arthur Dent,Image,TIFF
QCIT_27c3_974_088_292,1923-09-03,Arthur Dent,PhysicalObject,PNG 1.2
AAVB_70O8_472_835_003,2025-07-02,Arthur Dent,Text,XDMF
AYTW_83L7_467_180_649,1980-01-14,Arthur Dent,StillImage,SIARD
CMDO_37J8_240_706_776,2020-07-02,Arthur Dent,Image,ODT 1.0
DJHY_18J2_325_848_140,1971-06-13,Arthur Dent,Image,PDF 1.0
GHPU_51Q6_375_412_054,1995-10-30,Arthur Dent,Dataset,PDF 1.0
JBWY_75k3_908_994_540,1995-04-31,Arthur Dent,Software,ODS 1.2
JSYO_40d6_352_825_167,2023-10-08,Arthur Dent,MovingImage,PDF 1.1
KFWD_30a4_583_635_891,1924-11-14,Arthur Dent,MovingImage,SVG UTF-8 1.0
SHUE_74o1_751_975_412,1929-10-15,Arthur Dent,MovingImage,PDF 1.1
CYXK_62Q5_301_006_090,1954-06-15,Arthur Dent,Collection,PDF 1.4
TTAP_77o9_820_361_110,2010-11-15,Arthur Dent,Sound,GIF 87a
XYQD_81u1_972_568_796,1964-07-02,Arthur Dent,Service,TXT UTF-8
VCRD_64f2_392_209_413,1936-09-13,Arthur Dent,Text,AIFF PCM
OMFA_19W3_267_400_157,1965-06-25,Arthur Dent,InteractiveResource,HDF5 2.0
BTSN_27W8_950_340_772,2021-03-08,Arthur Dent,Software,ODT 1.1
JQXE_96W8_770_089_335,1989-05-03,Arthur Dent,Sound,TEI UTF-8 3.0.0
FYZL_84q3_714_296_549,2023-01-11,Arthur Dent,MovingImage,PDFA 3a
GZRH_35h6_600_787_728,1936-07-07,Arthur Dent,Sound,TIFF 6.0
XAZI_04k1_617_715_438,2019-12-12,Arthur Dent,Sound,TIFF 5.0
JWNH_23d1_333_182_186,1990-12-05,Arthur Dent,StillImage,PDF 1.5
VGWW_12b5_639_442_418,1971-10-01,Arthur Dent,StillImage,SVG UTF-8 1.2
DUXB_57s1_893_968_647,2001-05-13,Arthur Dent,MovingImage,PDF 1.2
WXSJ_90R3_712_812_958,1910-04-17,Arthur Dent,Software,PNG 1.0
GHWK_05z4_237_549_499,1977-09-07,Arthur Dent,Software,SVG UTF-8 1.0
FWEO_05g7_040_767_089,1997-06-17,Arthur Dent,Collection,TIFF 6.0
FYCZ_84Y2_329_632_601,1963-07-19,Arthur Dent,StillImage,FLAC FLAC 1.2.1
BGIX_55W9_106_495_729,1922-09-18,Arthur Dent,Event,GIF 89a
GWIV_99f3_078_512_805,1936-11-24,Arthur Dent,MovingImage,PDF 1.3
PVTX_45v2_038_597_721,2020-02-09,Arthur Dent,InteractiveResource,PDF 1.4
ZBRB_34m6_560_366_922,1940-01-30,Arthur Dent,Event,ODT 1.1
PTLH_54G3_668_875_102,1931-04-12,Arthur Dent,Service,OGG Vorbis
SAUE_99T7_378_137_294,1926-07-20,Arthur Dent,Collection,PDFA 2b
ZGBG_83s8_744_015_237,1996-07-10,Arthur Dent,Collection,PDF 1.1
LJUM_71h5_657_684_858,1927-12-10,Arthur Dent,InteractiveResource,XDMF
SUNF_75m7_029_587_300,2020-01-27,Arthur Dent,Dataset,MKV AVC/FLAC
SISR_97l1_724_622_675,1964-12-22,Arthur Dent,InteractiveResource,PDFA 2b
XCCF_11S3_803_197_477,1987-04-05,Arthur Dent,Software,PDFA 1b
SPLH_42n8_584_916_299,1983-03-03,Arthur Dent,Text,SVG UTF-8 1.0
CBBA_11Q7_384_615_717,2001-01-28,Arthur Dent,Dataset,PDF 1.5
ZGPO_98J4_728_343_447,1947-09-26,Arthur Dent,Text,PDFA 1b
KIOX_75h1_633_097_903,1966-12-26,Arthur Dent,Service,HDF5 2.0
WMXR_18d6_111_862_147,2020-12-24,Arthur Dent,MovingImage,MPEG-4 AVC/AAC LC
QIMR_95j2_849_837_520,1956-01-23,Arthur Dent,Collection,JPEG
NMWN_11r8_815_131_582,1933-01-11,Arthur Dent,Collection,MPEG-4 AVC
OJHT_86T7_827_371_648,1975-12-18,Arthur Dent,Sound,PDF 1.5
PCTL_47z8_143_709_968,2018-10-24,Arthur Dent,Dataset,PDF 1.1
LKVV_99q4_613_309_645,1947-06-13,Arthur Dent,Text,PNG 1.0
PVTW_26l2_143_670_096,1967-11-06,Arthur Dent,Image,PDFA 2u
ZFNZ_09G7_805_817_631,1950-04-23,Arthur Dent,InteractiveResource,PDF 1.4
QKIW_01Q7_926_540_105,1991-04-24,Arthur Dent,Event,JPEG2000
FIBP_66q5_177_173_473,2025-02-12,Arthur Dent,Service,TXT UTF-8
XPYQ_28G3_187_061_500,2015-12-12,Arthur Dent,Collection,SVG UTF-8 1.0
SSQL_77I1_628_937_995,1998-02-27,Arthur Dent,Sound,PDF 1.2
MLYB_29h6_450_633_581,1914-04-24,Arthur Dent,Dataset,PDFA 2b
PKTI_95O5_464_499_090,1949-04-19,Arthur Dent,Sound,PDF 1.3
VGSV_74p8_652_859_368,1989-01-09,Arthur Dent,Service,PDF 1.3
HBCB_63c7_303_927_151,2006-12-23,Arthur Dent,PhysicalObject,MPEG-4 AVC/AAC
QQGN_58X3_517_763_665,1971-02-29,Arthur Dent,PhysicalObject,JPEG2000
RKNZ_33u3_227_288_197,1943-07-14,Arthur Dent,MovingImage,JPEG 1.00
YSKV_95X1_255_227_956,1910-08-09,Arthur Dent,Event,SIARD
DIZV_76t1_910_885_321,1957-01-08,Arthur Dent,Software,JPEG2000
UTZF_50c2_892_920_362,2004-06-29,Arthur Dent,MovingImage,GIF 89a
QNHL_31P5_938_378_353,1977-09-20,Arthur Dent,MovingImage,DAE UTF-8 1.4.1
RPYW_76h4_952_411_227,1981-05-27,Arthur Dent,Dataset,MPEG-4 AVC
BORX_29m8_580_879_271,1920-03-26,Arthur Dent,Event,HDF5 1.0
RFQR_46C9_735_112_261,1993-09-07,Arthur Dent,StillImage,TEI UTF-8 3.1.0
VREJ_58j4_975_165_469,2002-03-17,Arthur Dent,InteractiveResource,AIFF PCM
BVXJ_19e2_658_991_941,1975-12-22,Arthur Dent,Sound,TEI UTF-8 3.0.0
EMKA_37h5_274_211_402,1927-10-09,Arthur Dent,Dataset,PNG 1.1
GFAA_82Y6_122_237_360,1936-12-05,Arthur Dent,PhysicalObject,ODT 1.1
JUQL_98R9_420_985_420,1993-10-27,Arthur Dent,StillImage,SVG UTF-8 1.0
VNCX_86n3_322_277_447,1953-06-01,Arthur Dent,Text,OGG Theora/Vorbis
DUAS_42T1_351_028_739,1934-11-18,Arthur Dent,StillImage,AAC AAC
ZWKJ_12k2_411_164_623,1914-02-15,Arthur Dent,StillImage,PDF 1.6
GHDL_65m2_811_577_172,1954-12-09,Arthur Dent,Service,PDF 1.1
BAZF_85B9_267_206_433,1982-03-17,Arthur Dent,Dataset,AAC AAC
BCDC_20t1_571_162_767,1990-10-20,Arthur Dent,Service,MPEG-4 AVC/AAC LC
HNNT_46u5_490_352_725,1974-06-18,Arthur Dent,Dataset,PDF 1.3
NBOY_56X9_389_618_097,2021-07-08,Arthur Dent,MovingImage,SVG UTF-8 1.0
VHFN_21g2_726_250_528,1982-09-26,Arthur Dent,Text,TXT UTF-8
OFQL_30z5_673_200_370,1935-02-29,Arthur Dent,InteractiveResource,JPEG 1.00
BOTZ_96X6_032_304_696,1936-05-04,Arthur Dent,Image,PDF 1.6
FGQV_99u6_947_147_968,1913-11-10,Arthur Dent,Text,MPEG-4 AAC
AWBA_89w3_485_097_267,1978-09-06,Arthur Dent,Service,PDFA 2a
XLXN_13d4_928_135_655,1935-11-23,Arthur Dent,Text,PDF 1.5
LKNX_72S5_721_914_300,2009-08-26,Arthur Dent,Collection,JPEG 1.01
FJKO_91J7_155_740_182,1923-06-14,Arthur Dent,Sound,APNG
VHEY_29v4_444_266_729,1963-04-24,Arthur Dent,Event,PNG 1.2
HBWW_67G1_404_718_454,1973-03-06,Arthur Dent,StillImage,PDFA 2u
RGRY_39Z7_289_442_473,1995-02-11,Arthur Dent,StillImage,ODT 1.1
WPBN_34A3_215_157_539,2021-11-17,Arthur Dent,Dataset,TXT UTF-8
ABXF_89O8_044_596_939,1913-12-30,Arthur Dent,Text,PDFA 2u
VEQM_97u9_345_773_718,2004-07-25,Arthur Dent,Service,MPEG-4 AVC/AAC LC
DXHH_17O1_428_138_719,1916-10-02,Arthur Dent,Event,AAC AAC
UVSL_01i2_320_159_738,1958-10-25,Arthur Dent,Text,JPEG
WWQF_82I9_336_024_917,1945-12-10,Arthur Dent,PhysicalObject,TIFF 6.0
DPJZ_62A6_753_701_878,1941-10-30,Arthur Dent,MovingImage,XDMF
QXWL_27C3_391_016_925,2021-03-07,Arthur Dent,Service,SIARD
VGBP_63m6_581_337_975,1990-04-31,Arthur Dent,PhysicalObject,PNG 1.1
NGQI_42T5_435_506_122,2024-12-24,Arthur Dent,Software,TEI UTF-8 3.1.0
QLPQ_70d3_967_291_534,1956-09-15,Arthur Dent,Sound,ODT 1.2
QHGT_42i9_085_685_649,1943-07-18,Arthur Dent,Service,OGG Vorbis
XIIT_42w4_112_244_687,1915-05-24,Arthur Dent,Sound,XDMF
PJHZ_22d9_445_877_208,1999-08-27,Arthur Dent,Sound,PDFA 1a
PAYQ_66F1_274_795_508,2007-11-30,Arthur Dent,Sound,SVG UTF-8 1.0
OTAI_35u6_476_767_996,1996-08-07,Arthur Dent,Service,ODS 1.2
BDLA_41d5_628_916_409,1962-01-04,Arthur Dent,Text,SIARD
LVIL_44E7_642_481_869,1967-06-14,Arthur Dent,Image,OGG Vorbis
QNLW_68a3_982_602_318,1956-02-27,Arthur Dent,Image,JPEG
MKPH_87j3_636_190_283,1914-10-03,Arthur Dent,Service,TIFF 4.0
SZNO_89c7_269_717_368,1933-12-12,Arthur Dent,Software,MPEG-4 AVC
CSDC_90n8_642_783_735,2023-01-29,Arthur Dent,Text,APNG
TNZI_76S5_522_801_155,1965-11-25,Arthur Dent,InteractiveResource,PDFA 1a
OYIY_11g7_198_344_770,1923-11-09,Arthur Dent,InteractiveResource,PLY ASCII 1.0
MXNM_69K1_786_931_540,2023-11-13,Arthur Dent,Service,DAE UTF-8 1.4.1
GJVJ_89L5_955_734_157,2000-09-25,Arthur Dent,MovingImage,MPEG-4 AAC
EUWZ_75f7_601_542_006,1996-09-26,Arthur Dent,Event,JPEG 1.02
AFNV_04N7_254_192_611,2019-03-27,Arthur Dent,Event,TIFF 5.0
BIBH_19i5_759_096_801,2006-09-22,Arthur Dent,Software,PNG 1.2
BZAV_48T9_072_680_149,1965-07-20,Arthur Dent,Service,GeoTIFF
ZFXD_27d1_425_766_550,1940-02-08,Arthur Dent,Service,PDF 1.2
HHGZ_77Z1_393_679_496,2022-03-29,Arthur Dent,Event,ODS 1.1
PFQV_94O2_565_061_133,1935-06-01,Arthur Dent,Collection,ODS 1.1
UCCQ_28Y5_757_523_253,2013-10-14,Arthur Dent,Software,PDFA 2a
CICH_43V7_406_709_180,2018-01-29,Arthur Dent,Event,WAV
ZNXC_29V1_644_770_133,1951-01-01,Arthur Dent,InteractiveResource,PDFA 2u
QSLO_96Q7_568_895_682,1992-10-16,Arthur Dent,Dataset,PDFA 2u
RRMN_23i4_963_124_382,1925-01-12,Arthur Dent,Sound,MPEG-4 AAC
XBZW_14Z7_099_704_227,1923-08-15,Arthur Dent,Software,PDF 1.5
VGDV_28e9_018_770_340,1942-04-02,Arthur Dent,Text,TIFF 4.0
RUCP_39n4_173_435_830,1996-02-03,Arthur Dent,Sound,XML UTF-8 1.0
MTTQ_03S6_622_390_022,2025-03-17,Arthur Dent,Service,APNG
LAIE_20g6_258_421_309,1986-02-31,Arthur Dent,Event,PDF 1.7
PLCR_09O4_573_291_703,1940-04-14,Arthur Dent,Text,OGG Theora/Vorbis
RPUR_42A5_972_311_568,1946-07-12,Arthur Dent,Sound,TEI UTF-8 3.1.0
YSOV_39b9_520_608_095,1918-09-06,Arthur Dent,Collection,MPEG-4 AVC
NKAV_36v8_160_121_772,1951-09-10,Arthur Dent,Collection,TIFF
VDGH_81d8_652_659_002,1941-02-22,Arthur Dent,Text,SVG UTF-8 1.2
RSLA_58I1_193_340_037,1990-10-02,Arthur Dent,Software,ODS 1.1
JDVL_89D5_940_222_923,1960-12-16,Arthur Dent,InteractiveResource,PDFA 2b
KCFQ_68u4_610_470_457,1973-07-21,Arthur Dent,InteractiveResource,JPEG 1.02
YLVQ_87u8_139_001_885,1921-11-21,Arthur Dent,Collection,TIFF 4.0
NMYZ_44n7_454_068_866,2005-08-30,Arthur Dent,StillImage,TEI UTF-8 3.1.0
BBDO_04P6_307_295_818,2014-06-25,Arthur Dent,Event,AAC AAC
ETLW_96w7_911_520_898,1961-01-14,Arthur Dent,Dataset,JPEG 1.02
DWZD_45g4_988_358_909,1964-08-06,Arthur Dent,Collection,PDF 1.6
SMUV_69V6_676_444_794,1941-09-29,Arthur Dent,PhysicalObject,JPEG
WPXE_05X1_419_234_293,1919-04-23,Arthur Dent,StillImage,JPEG
LMZV_73s3_282_219_068,1987-01-07,Arthur Dent,StillImage,JPEG 1.01
JREU_35o8_129_362_880,1993-08-19,Arthur Dent,Image,MKV AVC/FLAC
SLGZ_20Q4_896_298_321,2020-05-28,Arthur Dent,Service,XSD
AMXH_57z1_557_164_415,1973-10-25,Arthur Dent,Dataset,GIF 87a
WIPN_73j2_461_152_451,1935-09-20,Arthur Dent,Dataset,PDF 1.7
QYVN_46N5_364_144_823,2018-02-23,Arthur Dent,StillImage,PDFA 2a
EYDT_29g3_690_227_541,1981-03-15,Arthur Dent,Text,SVG UTF-8 1.1
HGCJ_52C8_786_434_379,1983-02-28,Arthur Dent,Collection,MKV AVC/FLAC
ALZV_12I2_300_864_093,1986-10-14,Arthur Dent,Software,PDF 1.7
YJAJ_59c6_981_058_439,1973-09-18,Arthur Dent,Image,PDF 1.4
FKZV_79o6_584_887_385,2015-11-30,Arthur Dent,Software,XSD
OZCQ_65X2_478_096_263,1968-02-28,Arthur Dent,Image,AIFF PCM
BXJZ_23R3_808_987_917,2005-09-19,Arthur Dent,Image,SVG UTF-8 1.0
HGTR_63X7_438_664_199,1961-08-17,Arthur Dent,InteractiveResource,MPEG-4 AVC
EKXD_13s6_058_936_029,1964-01-28,Arthur Dent,MovingImage,DAE UTF-8 1.4.1
MTAQ_34Z3_715_271_351,1933-06-24,Arthur Dent,Text,ODT 1.2
FFGX_13l4_557_310_367,1947-11-16,Arthur Dent,PhysicalObject,PDF 1.1
AOEH_44h8_306_814_074,1946-07-23,Arthur Dent,StillImage,PDFA 1b
XOAB_51J4_302_196_252,1985-06-08,Arthur Dent,Dataset,SVG UTF-8 1.0
GJSR_48S8_483_039_499,1934-08-16,Arthur Dent,Event,TEI UTF-8 3.0.0
HHQP_39x6_279_083_467,1963-09-18,Arthur Dent,MovingImage,TIFF 4.0
ABRF_67x9_620_362_843,1950-07-15,Arthur Dent,Software,FLAC FLAC 1.2.1
EFLS_71p8_038_912_303,2019-02-04,Arthur Dent,Service,XML UTF-8 1.0
DXPP_44X1_521_918_860,2002-11-24,Arthur Dent,Collection,MKV AVC/FLAC
ZVMO_90M5_654_628_422,1980-03-01,Arthur Dent,Software,PDFA 2b
NKOY_79X1_353_623_654,1984-05-08,Arthur Dent,Event,ODS 1.0
CPJB_26h4_030_270_471,1915-01-26,Arthur Dent,Image,ODS 1.1
TZME_16a3_327_081_708,2023-02-26,Arthur Dent,Sound,DAE UTF-8 1.4.1
LYZV_86J8_448_753_539,1994-09-04,Arthur Dent,Event,ODT 1.2
YPLI_83l6_797_042_941,1956-10-27,Arthur Dent,Image,ODS 1.1
QGSC_27o8_896_002_898,1928-01-15,Arthur Dent,Text,TIFF 5.0
HPIZ_67b5_213_272_201,1941-08-24,Arthur Dent,Event,PDF 1.4
BIWU_27W1_389_633_236,2018-10-18,Arthur Dent,Dataset,PDFA 2a
EWLP_24E9_752_639_128,1951-08-02,Arthur Dent,Sound,PDF 1.2
EFUQ_41B1_738_489_244,1966-07-20,Arthur Dent,StillImage,TEI UTF-8 3.1.0
LSTL_78q7_953_757_796,1956-07-28,Arthur Dent,Sound,PDFA 2u
XLVQ_19C7_660_481_142,1913-09-04,Arthur Dent,MovingImage,AAC AAC
RDBK_73W4_113_187_019,2015-05-06,Arthur Dent,Sound,MPEG-4 AVC
BAPG_81t2_357_193_395,2022-06-09,Arthur Dent,Software,OGG Vorbis
TEMS_54X9_802_898_122,1941-02-05,Arthur Dent,Software,MPEG-4 AVC/AAC LC
ZZOZ_92i9_793_893_718,1977-10-09,Arthur Dent,Dataset,ODS 1.1
ILMA_29q1_766_147_923,2015-12-08,Arthur Dent,Service,TIFF 5.0
IRTY_36Z9_448_654_444,1972-11-22,Arthur Dent,Sound,MPEG-4 AVC/AAC
FHZP_86e2_876_432_916,2010-09-10,Arthur Dent,Text,PDF 1.0
KQZY_80C3_333_743_105,1998-06-07,Arthur Dent,Dataset,ODS 1.0
DNBG_18I1_419_342_509,1980-05-04,Arthur Dent,Event,PDFA 2b
XUEY_36G4_545_921_136,1927-06-13,Arthur Dent,Dataset,ODT 1.1
FZEM_02h4_512_145_963,2011-05-17,Arthur Dent,Text,JPEG
RLAK_27k9_521_354_370,1968-11-03,Arthur Dent,MovingImage,ODS 1.1
HVJM_59b4_677_196_899,2020-11-26,Arthur Dent,PhysicalObject,PDF 1.4
VSVP_78u7_737_373_298,1973-04-08,Arthur Dent,InteractiveResource,ODT 1.1
KMMO_65r8_567_373_964,1937-06-12,Arthur Dent,Service,PNG 1.1
CLYG_13o6_202_183_699,1947-01-22,Arthur Dent,Event,PDFA 1a
NKMW_36M8_129_427_678,1973-07-07,Arthur Dent,Image,MPEG-4 AVC
BCVS_58H2_866_403_776,1983-11-08,Arthur Dent,Sound,PDF 1.0
HQZR_46a8_720_436_489,2011-07-08,Arthur Dent,Sound,ODT 1.0
ACOG_40c2_074_688_423,1919-12-27,Arthur Dent,Dataset,SVG UTF-8 1.2
JPUG_35m2_121_373_995,1984-04-16,Arthur Dent,Sound,TIFF
VCAG_79Q6_678_317_063,1974-11-13,Arthur Dent,Dataset,PDF 1.6
SPHF_35Y8_129_289_918,1950-09-07,Arthur Dent,MovingImage,TEI UTF-8 3.0.0
THOI_66h3_682_933_892,1933-10-05,Arthur Dent,StillImage,JPEG 1.02
QINE_37b9_846_831_684,2013-10-12,Arthur Dent,PhysicalObject,MPEG-4 AVC/AAC
VFAR_18T6_377_238_475,1993-08-04,Arthur Dent,PhysicalObject,MKV AVC/FLAC
ZQCQ_94Q2_134_247_985,1954-01-25,Arthur Dent,Dataset,PLY ASCII 1.0
ZFFX_12L6_728_028_507,1942-03-02,Arthur Dent,InteractiveResource,TIFF 6.0
MSXE_38q3_484_723_155,1974-07-05,Arthur Dent,Sound,PLY ASCII 1.0
KNPD_51S1_901_774_657,1933-03-30,Arthur Dent,Service,GeoTIFF
HCBM_89N9_320_258_286,1983-08-29,Arthur Dent,Sound,SIARD
RWNB_99u6_532_333_275,2013-03-06,Arthur Dent,Collection,PDFA 3a
VBAF_56b4_470_563_067,1912-05-14,Arthur Dent,StillImage,TXT UTF-8
UVFZ_86m3_813_365_360,1929-03-30,Arthur Dent,InteractiveResource,ODT 1.2
DJFA_34h4_190_166_883,1928-03-11,Arthur Dent,Image,PDF 1.7
ZZMV_60A1_281_166_899,2008-01-06,Arthur Dent,InteractiveResource,MKV AVC/FLAC
ZSCT_61M9_273_648_333,1910-08-16,Arthur Dent,StillImage,PNG 1.1
WSBX_12t3_816_849_389,1915-08-06,Arthur Dent,Service,MPEG-4 AVC/AAC LC
FXWO_73A6_651_744_802,2025-05-12,Arthur Dent,StillImage,TXT UTF-8
PFJJ_58m2_915_722_335,1948-09-15,Arthur Dent,Dataset,ODS 1.2
WKNA_16G5_563_567_356,1992-07-29,Arthur Dent,MovingImage,OGG Theora/Vorbis
TATM_44O4_651_943_880,2002-10-15,Arthur Dent,Text,PDF 1.7
SXRW_79V5_477_038_901,1923-12-29,Arthur Dent,InteractiveResource,PNG 1.2
JLWJ_48G9_487_594_781,1980-09-12,Arthur Dent,StillImage,PDF 1.4
LFME_36V3_239_686_422,2019-11-05,Arthur Dent,PhysicalObject,TXT UTF-8
RHMT_95M5_973_886_846,1928-06-22,Arthur Dent,InteractiveResource,PDFA 2b
JJPL_55k7_814_989_080,1919-10-13,Arthur Dent,Text,SIARD
FQSP_05X1_177_546_163,1988-05-17,Arthur Dent,MovingImage,PNG 1.2
LSWD_52u1_104_534_608,1998-12-18,Arthur Dent,Service,GIF 89a
WACD_57k9_374_903_429,1927-05-13,Arthur Dent,Text,WAV
NGBD_81k9_450_527_111,1925-12-11,Arthur Dent,Text,XSD
RDGM_10G7_817_401_069,1932-07-28,Arthur Dent,Dataset,MPEG-4 AVC/AAC LC
GFQY_89J7_511_626_092,1912-08-09,Arthur Dent,MovingImage,JPEG
EWLH_88J9_361_191_806,1986-11-03,Arthur Dent,InteractiveResource,APNG
TPHN_06y2_290_121_688,1992-09-23,Arthur Dent,Sound,PDFA 1b
WTGV_06b6_192_149_467,1938-12-21,Arthur Dent,Software,WAV
HPBM_71U8_128_312_733,1979-05-23,Arthur Dent,MovingImage,JPEG 1.01
QHBY_07O6_669_477_090,1999-10-11,Arthur Dent,StillImage,PDF 1.5
CJGT_52G7_200_333_041,1963-08-04,Arthur Dent,Image,PDFA 3a
YZHR_11t1_753_268_531,2015-05-22,Arthur Dent,PhysicalObject,PNG 1.2
UNLO_08Y4_258_040_094,1960-12-01,Arthur Dent,Sound,APNG
STXO_59U3_478_921_780,1921-12-21,Arthur Dent,Software,PDFA 3a
JHPX_53W6_380_426_029,2019-09-23,Arthur Dent,Text,PDF 1.5
GCQF_23X6_544_889_252,1981-09-20,Arthur Dent,Service,DAE UTF-8 1.4.1
LQPX_45B7_491_547_701,2002-11-15,Arthur Dent,PhysicalObject,ODS 1.2
SZKK_47S3_343_289_215,1970-07-07,Arthur Dent,InteractiveResource,TEI UTF-8 3.0.0
VIUG_33L4_498_569_309,1997-06-25,Arthur Dent,Service,TXT UTF-8
HECV_11z7_544_663_213,1965-07-04,Arthur Dent,Collection,TIFF 4.0
VMYS_11H7_267_255_210,1945-07-11,Arthur Dent,PhysicalObject,ODS 1.1
BGMQ_06L2_554_692_072,1995-01-03,Arthur Dent,StillImage,ODT 1.1
SNWZ_36M7_155_822_929,1923-08-01,Arthur Dent,StillImage,APNG
KHNZ_79X4_461_821_472,1972-10-21,Arthur Dent,StillImage,PDF 1.4
YSMM_60X8_958_275_612,1914-04-08,Arthur Dent,Sound,MPEG-4 AVC/AAC LC
IQNY_34P1_191_113_652,1915-08-18,Arthur Dent,InteractiveResource,MPEG-4 AVC/AAC LC
AGTH_20G8_652_585_784,1940-06-05,Arthur Dent,PhysicalObject,JPEG2000
UWHV_62M6_981_103_874,1940-05-14,Arthur Dent,MovingImage,HDF5 1.0
EBDI_82h7_065_034_020,2010-12-01,Arthur Dent,Image,TIFF 6.0
OZEN_37H1_474_039_769,1939-08-07,Arthur Dent,MovingImage,TEI UTF-8 3.0.0
NVUC_13n4_368_022_511,1963-09-23,Arthur Dent,InteractiveResource,PNG 1.0
XSQU_47u6_808_730_133,1915-01-24,Arthur Dent,Sound,FLAC FLAC 1.2.1
FQPT_87c3_958_179_746,1940-01-10,Arthur Dent,Service,JPEG 1.02
IJXP_64Q2_979_350_367,1918-08-19,Arthur Dent,Dataset,SVG UTF-8 1.2
HYKA_19b9_483_032_188,1926-08-04,Arthur Dent,Service,TIFF 5.0
JPIE_11N8_513_703_716,1937-04-01,Arthur Dent,Collection,FLAC FLAC 1.2.1
WRLX_66W5_233_041_632,1987-09-07,Arthur Dent,Text,XSD
ANAL_47c3_133_933_873,1972-04-20,Arthur Dent,Dataset,MPEG-4 AVC/AAC LC
QIPS_93P4_875_740_854,2009-06-05,Arthur Dent,InteractiveResource,ODS 1.1
SKZY_95M6_445_673_517,1911-01-19,Arthur Dent,Text,HDF5 2.0
GPSZ_10G9_178_382_306,1984-10-30,Arthur Dent,StillImage,PDFA 2b
ZFRV_03e4_868_215_232,1994-02-19,Arthur Dent,Text,MPEG-4 AAC
QWRO_70Q5_847_178_109,1949-06-17,Arthur Dent,Dataset,FLAC FLAC 1.2.1
LVGF_46H7_658_899_741,1943-05-03,Arthur Dent,Software,PNG 1.0
CNWS_33a6_012_967_398,1976-03-06,Arthur Dent,Image,SVG UTF-8 1.1
BZLH_53j6_401_040_201,1960-07-01,Arthur Dent,Text,SVG UTF-8 1.0
TZSS_55e1_419_479_662,2004-10-05,Arthur Dent,StillImage,ODS 1.0
WLMS_79p8_318_852_360,1913-01-14,Arthur Dent,Collection,PNG 1.2
XRMJ_10R3_595_431_645,1922-01-17,Arthur Dent,Service,SVG UTF-8 1.2
ZQFX_60m6_733_276_060,2022-01-15,Arthur Dent,Software,DAE UTF-8 1.4.1
MGEQ_67y4_617_897_593,2019-10-20,Arthur Dent,InteractiveResource,PDFA 1b
RLUF_90Y3_996_546_033,1937-09-20,Arthur Dent,Image,PDF 1.5
HYAG_76B8_700_412_454,1986-02-13,Arthur Dent,Service,AIFF PCM
MTOP_45o7_102_888_632,1962-12-25,Arthur Dent,Software,JPEG 1.01
YXHN_23U7_246_519_060,2025-08-08,Arthur Dent,PhysicalObject,SVG UTF-8 1.0
ZEFY_15J4_355_494_414,1995-04-06,Arthur Dent,Image,ODS 1.0
FRFZ_25I3_341_896_809,1951-09-14,Arthur Dent,Collection,PDFA 1a
KYKX_92i9_651_470_650,1949-12-26,Arthur Dent,StillImage,DAE UTF-8 1.4.1
VCFW_36o3_307_177_364,1948-03-22,Arthur Dent,Dataset,XDMF
DHSI_71G9_040_332_246,1918-01-04,Arthur Dent,Service,APNG
MWUX_82X3_440_652_303,1959-09-06,Arthur Dent,MovingImage,TEI UTF-8 3.0.0
KXCC_86d9_925_223_766,1923-05-12,Arthur Dent,InteractiveResource,SIARD
TAHO_83V6_969_075_449,1912-01-22,Arthur Dent,PhysicalObject,SVG UTF-8 1.2
LZQP_96M1_664_693_071,2021-01-06,Arthur Dent,Image,PNG 1.0
FHVN_26i9_110_931_166,2022-02-08,Arthur Dent,PhysicalObject,JPEG2000
XTFK_64d3_829_859_929,2009-03-16,Arthur Dent,Software,PDFA 1b
VQIO_19x2_350_722_505,1941-07-12,Arthur Dent,Event,OGG Theora/Vorbis
FPOH_08M3_215_739_690,1987-05-29,Arthur Dent,Service,PDF 1.6
XSUD_25x3_237_249_451,1971-07-30,Arthur Dent,PhysicalObject,JPEG 1.01
BFAC_23q8_907_617_061,2021-09-11,Arthur Dent,Software,MKV AVC/FLAC
ZGMJ_81c9_013_523_750,1968-01-13,Arthur Dent,Software,ODT 1.0
BSSY_08S3_781_440_501,1921-01-23,Arthur Dent,Service,TEI UTF-8 3.0.0
LEYH_24y5_337_405_926,2004-03-29,Arthur Dent,Service,PDF 1.4
FTQW_70c1_227_573_686,2002-04-19,Arthur Dent,Dataset,PDF 1.3
YHFG_89e1_755_674_875,1954-07-10,Arthur Dent,StillImage,PDF 1.7
HJCE_83t6_825_620_255,2000-01-22,Arthur Dent,Text,PDFA 1a
HANL_47W9_664_676_159,1958-07-14,Arthur Dent,PhysicalObject,PLY ASCII 1.0
BGSY_98I8_173_868_371,2011-05-12,Arthur Dent,Collection,JPEG2000
SYYA_83s9_414_386_941,2020-09-24,Arthur Dent,Service,DAE UTF-8 1.4.1
KAHS_32P6_495_292_092,1983-05-29,Arthur Dent,Collection,ODT 1.1
HLRC_62Z3_333_766_540,1987-04-01,Arthur Dent,Service,PDF 1.6
JJDK_78Z8_788_444_545,1928-08-17,Arthur Dent,InteractiveResource,PNG 1.0
TARC_34Q4_257_410_646,1911-09-12,Arthur Dent,Service,PNG 1.0
XTAO_41a6_953_621_866,1930-12-12,Arthur Dent,Text,ODT 1.0
QOPK_46Y6_647_164_423,2011-05-24,Arthur Dent,Sound,SVG UTF-8 1.0
LHGR_33H8_127_466_856,1997-04-13,Arthur Dent,Image,PDF 1.7
OKVG_05D2_130_541_562,1994-03-22,Arthur Dent,MovingImage,XML UTF-8 1.0
DFBV_82V6_880_557_622,1965-03-23,Arthur Dent,InteractiveResource,PDF 1.0
LMSU_17L1_778_286_430,1934-01-09,Arthur Dent,MovingImage,PDFA 2u
UFUF_06o8_621_959_117,2021-06-04,Arthur Dent,Text,TEI UTF-8 3.1.0
HEPU_23r5_666_166_805,2000-12-06,Arthur Dent,MovingImage,JPEG2000
AMJD_55R1_260_300_693,1970-10-18,Arthur Dent,Event,ODT 1.0
OGWG_78J4_633_068_659,1956-12-12,Arthur Dent,PhysicalObject,SVG UTF-8 1.1
XYOG_41U9_493_295_527,2008-01-09,Arthur Dent,StillImage,SVG UTF-8 1.0
WKYK_56v8_552_171_501,1990-03-07,Arthur Dent,Software,PDF 1.0
ODUI_61r8_373_965_472,1961-01-09,Arthur Dent,Service,OGG Vorbis
JXMB_16k1_641_474_961,1989-07-08,Arthur Dent,Service,XSD
MCTT_59k3_034_468_920,2015-07-06,Arthur Dent,Image,PNG 1.1
SWVT_40e8_815_765_104,1998-04-13,Arthur Dent,StillImage,MPEG-4 AVC
JCZB_72I3_417_301_236,1932-07-16,Arthur Dent,Text,PDFA 2u
IRPQ_64l7_177_543_630,2013-12-22,Arthur Dent,Collection,PDFA 1a
KHHB_08d8_811_374_553,1918-01-15,Arthur Dent,Collection,PDF 1.5
QADS_82t2_938_688_973,1971-11-07,Arthur Dent,Software,SIARD
SYJH_75I3_171_231_771,1936-01-01,Arthur Dent,Image,MKV AVC/FLAC
OFUZ_86P3_494_922_079,2018-01-30,Arthur Dent,Software,MPEG-4 AVC/AAC
FJZU_89n2_457_857_757,1915-06-19,Arthur Dent,Event,PDF 1.6
FQTQ_30x1_560_877_014,1983-04-30,Arthur Dent,Sound,TEI UTF-8 3.1.0
JRLE_26e2_685_934_695,1998-04-29,Arthur Dent,Sound,PLY ASCII 1.0
QMBU_97v6_042_944_162,1923-03-12,Arthur Dent,Text,XDMF
BXCB_84c5_774_220_311,1970-04-26,Arthur Dent,Text,HDF5 1.0
FGSH_77C4_587_003_273,1995-09-14,Arthur Dent,Collection,PDF 1.7
POQQ_46F7_529_328_195,1956-04-28,Arthur Dent,PhysicalObject,XML UTF-8 1.0
QBNQ_89D8_771_320_270,2012-03-27,Arthur Dent,Image,PDF 1.7
TYZD_72b1_594_306_747,1983-07-02,Arthur Dent,InteractiveResource,PDFA 3a
IUFT_98n3_998_055_816,2023-10-17,Arthur Dent,StillImage,PDFA 1a
CJMC_28c9_939_578_221,1964-01-28,Arthur Dent,MovingImage,DAE UTF-8 1.4.1
GQQT_66Y6_990_858_965,1939-07-11,Arthur Dent,Dataset,AAC AAC
EGPX_66Q5_001_596_283,1969-04-22,Arthur Dent,Collection,PNG 1.1
RTMT_01W8_193_052_540,2006-08-05,Arthur Dent,Service,SVG UTF-8 1.2
SJLR_31Z5_673_613_574,1989-06-28,Arthur Dent,Service,OGG Vorbis
XCBK_02G7_397_067_010,1989-12-07,Arthur Dent,Sound,TEI UTF-8 3.0.0
BTSB_41P2_036_323_188,1918-03-03,Arthur Dent,Software,MPEG-4 AVC
LPJP_47q2_381_116_144,1951-07-24,Arthur Dent,StillImage,JPEG 1.00
CGPW_29W5_724_936_526,1957-03-20,Arthur Dent,Image,PDFA 2u
IOSC_56a1_401_222_585,1959-04-05,Arthur Dent,Event,MPEG-4 AVC
USAT_94d1_383_822_396,1943-06-19,Arthur Dent,Collection,AIFF PCM
ZFDK_14k9_761_547_906,2011-12-10,Arthur Dent,Service,DAE UTF-8 1.4.1
RAZU_99o9_226_430_887,1973-10-25,Arthur Dent,Text,TXT UTF-8
LRXJ_36n5_825_562_531,1969-02-01,Arthur Dent,Image,MPEG-4 AVC/AAC
JJCJ_79c6_370_703_498,2000-06-29,Arthur Dent,PhysicalObject,PDF 1.4
SXAL_94h1_247_342_259,1934-07-29,Arthur Dent,Text,JPEG
JRDL_55z9_567_724_436,2002-11-10,Arthur Dent,Service,APNG
OWAL_09D9_129_319_674,2003-08-05,Arthur Dent,Event,MKV AVC/FLAC
AHTA_90w2_585_873_273,1941-06-29,Arthur Dent,Service,TIFF 5.0
GIFI_72H1_103_643_715,1942-03-30,Arthur Dent,Service,MPEG-4 AVC
KGJR_17f7_327_580_350,1922-10-30,Arthur Dent,Sound,PDF 1.2
MBAW_45a6_271_274_600,2009-01-24,Arthur Dent,Software,ODT 1.1
DAKS_94B1_022_276_244,1936-08-31,Arthur Dent,Event,APNG
BTFW_44Z3_421_747_023,1931-12-13,Arthur Dent,Text,PDFA 2u
ZTLN_39P7_764_485_618,1941-06-26,Arthur Dent,Image,OGG Vorbis
OXMW_25y8_941_159_350,1996-05-12,Arthur Dent,Image,OGG Vorbis
WYOQ_32u8_536_204_100,1930-03-21,Arthur Dent,Service,TIFF 5.0
BGCV_65o1_458_188_829,1966-05-19,Arthur Dent,Collection,SVG UTF-8 1.1
YYBE_84M4_837_247_561,1911-01-21,Arthur Dent,Software,JPEG
ZBXO_05A5_676_077_740,1968-06-03,Arthur Dent,Image,MPEG-4 AAC
XMAV_70R2_735_212_235,2002-11-20,Arthur Dent,Text,PDF 1.5
EXBF_56k6_079_912_234,1914-11-30,Arthur Dent,Event,ODT 1.2
HVIV_10K6_095_178_286,2012-11-30,Arthur Dent,Sound,MPEG-4 AVC/AAC LC
IBVE_73m6_688_102_455,1946-12-22,Arthur Dent,Text,TXT UTF-8
XQTW_88r7_033_451_817,2014-07-13,Arthur Dent,StillImage,PDF 1.7
KSJX_18f1_695_012_533,1977-11-14,Arthur Dent,InteractiveResource,PDFA 2u
ASAL_51u1_771_972_635,1950-09-29,Arthur Dent,Image,HDF5 2.0
VVXE_57O9_019_386_848,1986-04-14,Arthur Dent,Software,PNG 1.0
BYHF_89C3_677_133_088,1914-06-12,Arthur Dent,Text,PDF 1.1
AOXW_42t6_572_874_540,1960-01-20,Arthur Dent,Image,ODT 1.1
HECY_48B4_073_955_511,1994-03-18,Arthur Dent,Event,AIFF PCM
RQMC_05f5_111_553_326,1976-04-11,Arthur Dent,Event,TEI UTF-8 3.0.0
THZR_59Z3_064_229_701,1936-04-02,Arthur Dent,PhysicalObject,OGG Theora/Vorbis
OPAC_97l2_267_695_325,1942-10-27,Arthur Dent,MovingImage,XSD
JTCN_09i6_880_051_495,1923-06-29,Arthur Dent,Event,JPEG 1.00
GXAA_69g8_025_494_578,2009-10-23,Arthur Dent,Event,PDF 1.2
WIHR_81C8_853_253_403,1962-03-04,Arthur Dent,Collection,FLAC FLAC 1.2.1
RGVD_21Q7_074_624_174,2011-07-25,Arthur Dent,Service,APNG
IEWQ_31r7_274_609_600,1993-08-30,Arthur Dent,MovingImage,PNG 1.0
TISK_85T5_699_529_915,1974-11-29,Arthur Dent,Collection,SVG UTF-8 1.1
NZRQ_69V6_489_494_138,1935-02-01,Arthur Dent,MovingImage,XML UTF-8 1.0
ONAB_47Y6_654_468_778,1993-04-01,Arthur Dent,Text,ODT 1.2
NZFT_90n8_988_238_163,1936-08-31,Arthur Dent,Dataset,ODS 1.2
RXKN_72p6_439_686_078,2007-06-15,Arthur Dent,InteractiveResource,ODS 1.2
DKQT_50a2_318_368_350,1924-04-29,Arthur Dent,Event,WAV
LVPO_71O2_944_201_590,1939-11-09,Arthur Dent,Software,ODS 1.2
AMUS_15O4_733_012_227,2024-09-14,Arthur Dent,Text,ODS 1.1
XCHP_22d9_829_585_407,1926-11-24,Arthur Dent,PhysicalObject,ODS 1.0
IIIY_49b6_160_925_213,2008-01-23,Arthur Dent,StillImage,TIFF 6.0
NKWZ_65n4_185_508_806,1999-03-22,Arthur Dent,Collection,XSD
BRSQ_19j6_444_435_902,1918-04-29,Arthur Dent,Software,ODT 1.0
IMPJ_13Q2_066_695_792,1996-03-28,Arthur Dent,InteractiveResource,ODT 1.1
RRDH_25y5_356_204_093,2018-10-16,Arthur Dent,Sound,TIFF
KACT_44m7_716_516_242,1940-09-11,Arthur Dent,MovingImage,JPEG 1.01
GSBL_97g4_430_409_879,1939-05-22,Arthur Dent,Image,OGG Vorbis
VAQW_61o9_326_412_055,2013-08-07,Arthur Dent,InteractiveResource,TEI UTF-8 3.1.0
WIGC_13q7_560_772_881,1910-02-13,Arthur Dent,Sound,PNG 1.0
NCES_54O2_806_829_589,1995-10-24,Arthur Dent,PhysicalObject,GIF 87a
TKHP_56X6_159_234_320,1962-12-11,Arthur Dent,StillImage,PDF 1.6
DYXM_92j6_763_361_560,2013-06-26,Arthur Dent,Software,TIFF 5.0
UKDW_47L7_403_006_023,1991-07-21,Arthur Dent,PhysicalObject,GeoTIFF
XVTS_71U6_854_991_126,1941-05-24,Arthur Dent,Sound,APNG
HQVN_58y2_628_135_306,2025-09-14,Arthur Dent,Text,TIFF 6.0
UZMD_39S4_029_579_491,1924-01-20,Arthur Dent,Software,APNG
KAJK_92X5_231_321_607,1926-10-23,Arthur Dent,Dataset,GIF 87a
OHEW_67O1_951_461_144,2014-07-06,Arthur Dent,InteractiveResource,GIF 87a
ZKIL_86m2_425_592_741,2007-04-12,Arthur Dent,Software,SVG UTF-8 1.0
YKSB_24U2_960_047_324,1983-05-13,Arthur Dent,MovingImage,ODS 1.2
IJFH_44K6_057_442_336,2011-01-19,Arthur Dent,MovingImage,PDFA 1b
IAKD_15E1_364_801_638,2004-12-29,Arthur Dent,Collection,DAE UTF-8 1.4.1
ILQO_28V5_017_936_238,1947-03-06,Arthur Dent,InteractiveResource,PDF 1.1
GLVF_37D4_828_546_622,1977-04-19,Arthur Dent,Event,PNG 1.0
PWOH_48c2_635_807_863,1976-12-06,Arthur Dent,Software,JPEG 1.00
EPVQ_20R8_382_037_596,1974-02-16,Arthur Dent,Collection,TEI UTF-8 3.0.0
XSPC_08M1_857_250_006,1926-06-30,Arthur Dent,InteractiveResource,XML UTF-8 1.0
TKLG_23O5_500_005_186,1939-01-27,Arthur Dent,Service,ODS 1.0
IXMO_67R3_312_961_270,1977-12-30,Arthur Dent,Software,XML UTF-8 1.0
PVUW_82a8_346_547_515,2023-05-02,Arthur Dent,Collection,MPEG-4 AAC
QFUY_49R7_207_792_296,1931-01-29,Arthur Dent,StillImage,ODS 1.0
QDHW_58d3_974_186_036,1917-10-24,Arthur Dent,Image,PDFA 1a
GNEA_87F9_076_962_995,1934-11-27,Arthur Dent,PhysicalObject,TXT UTF-8
SQTO_24S3_997_258_951,2020-11-21,Arthur Dent,Image,MPEG-4 AVC/AAC LC
ZBNJ_61L2_746_991_408,1984-03-11,Arthur Dent,InteractiveResource,PDF 1.7
OAGK_54u9_273_152_535,2009-07-10,Arthur Dent,Text,SVG UTF-8 1.2
OCPH_53E4_939_864_740,1996-02-27,Arthur Dent,Text,PDF 1.6
XTEG_84p7_212_162_449,1999-05-11,Arthur Dent,StillImage,PNG 1.2
YFWU_61m7_068_988_651,1942-05-25,Arthur Dent,StillImage,MPEG-4 AVC/AAC LC
PGYB_81U4_096_250_528,1916-07-28,Arthur Dent,Text,PDFA 1a
CRQG_38x5_939_717_839,1983-09-04,Arthur Dent,Sound,TIFF
IQMJ_49k5_028_787_023,1960-10-01,Arthur Dent,Image,SVG UTF-8 1.1
YYFW_33J5_727_510_855,2003-12-06,Arthur Dent,Dataset,JPEG 1.02
KQDF_37q5_812_181_879,1956-12-01,Arthur Dent,Dataset,APNG
PWBM_71g6_447_687_802,1922-02-31,Arthur Dent,Collection,JPEG 1.01
CYBB_15k7_054_930_696,1922-08-17,Arthur Dent,Dataset,OGG Vorbis
KZCR_88n2_179_427_099,1973-05-03,Arthur Dent,MovingImage,FLAC FLAC 1.2.1
WCAD_60d6_588_532_483,1951-08-29,Arthur Dent,Service,MPEG-4 AVC
VFEN_10Y7_317_590_477,1927-12-14,Arthur Dent,Software,TIFF
LNUI_12N9_879_502_496,1936-12-22,Arthur Dent,Collection,GIF 87a
ETIT_83u3_983_671_120,1956-01-15,Arthur Dent,Software,ODT 1.2
GWET_54j1_996_334_816,2000-10-26,Arthur Dent,Software,SVG UTF-8 1.2
XEJQ_24Q3_176_626_248,2019-08-22,Arthur Dent,Image,SVG UTF-8 1.2
ZAGG_78y3_749_461_740,2018-10-03,Arthur Dent,Service,MKV AVC/FLAC
FMHW_02f3_157_436_410,1976-05-03,Arthur Dent,Collection,PNG 1.1
WPIS_99J2_386_420_321,1926-05-24,Arthur Dent,PhysicalObject,PDF 1.0
PWEO_88u9_201_417_068,2007-02-09,Arthur Dent,Service,ODT 1.1
DVJT_12v5_032_906_512,1979-07-02,Arthur Dent,Event,GIF 87a
YKMA_89S9_750_055_715,1991-02-19,Arthur Dent,MovingImage,SVG UTF-8 1.2
XZYT_48U1_570_187_675,2009-11-12,Arthur Dent,StillImage,TIFF 5.0
TFTB_10O9_474_161_081,1939-09-03,Arthur Dent,MovingImage,PDF 1.1
BASF_11X9_054_806_217,1999-12-29,Arthur Dent,Text,PLY ASCII 1.0
APVC_21T6_089_721_123,2015-06-16,Arthur Dent,Service,MKV AVC/FLAC
RSCP_91W8_529_346_080,1988-12-12,Arthur Dent,Image,TIFF 4.0
TCQH_06X2_986_719_671,1925-07-01,Arthur Dent,StillImage,SVG UTF-8 1.1
PSIW_94C3_051_021_079,1973-02-05,Arthur Dent,StillImage,ODS 1.0
USJB_91E5_180_327_661,1974-11-06,Arthur Dent,Dataset,PLY ASCII 1.0
EKKV_84Y8_900_273_911,1915-12-04,Arthur Dent,Dataset,FLAC FLAC 1.2.1
NAPC_24l1_070_604_388,2008-07-09,Arthur Dent,Dataset,XSD
KJXB_63E3_189_340_633,2022-02-05,Arthur Dent,PhysicalObject,TXT UTF-8
PBPJ_56f5_465_688_004,1938-03-06,Arthur Dent,Software,PDF 1.5
KVFE_80k2_290_489_671,2007-02-31,Arthur Dent,Software,MPEG-4 AVC/AAC LC
JOTU_73d7_610_287_765,1985-01-29,Arthur Dent,Dataset,JPEG2000
PGWT_86K3_429_741_244,1995-02-20,Arthur Dent,PhysicalObject,HDF5 2.0
XKMC_76Q3_754_743_677,1925-09-30,Arthur Dent,StillImage,ODS 1.2
LQGV_81u2_809_576_486,1988-04-03,Arthur Dent,Image,PDFA 2a
GCMR_44f8_781_693_739,2009-11-18,Arthur Dent,Service,PDFA 2b
RQHN_59Z5_886_024_546,1920-06-20,Arthur Dent,InteractiveResource,PDFA 2u
GWZS_70g8_199_576_166,2024-02-17,Arthur Dent,MovingImage,TIFF 5.0
AFZX_29c7_590_893_244,1964-03-20,Arthur Dent,Collection,PDFA 1a
QCQD_33U5_021_288_102,1911-07-16,Arthur Dent,Text,PNG 1.0
WVEB_13A3_371_365_061,1933-03-09,Arthur Dent,Software,FLAC FLAC 1.2.1
TPXL_07W3_520_112_143,1972-02-20,Arthur Dent,PhysicalObject,ODT 1.1
IWRD_68O4_211_606_483,1932-02-24,Arthur Dent,MovingImage,ODT 1.2
GOUQ_23r4_264_303_233,1997-04-03,Arthur Dent,Collection,PDF 1.0
SFGR_09L7_353_386_315,1945-05-30,Arthur Dent,PhysicalObject,JPEG 1.00
KPUM_64K7_859_751_088,1948-02-19,Arthur Dent,Service,OGG Theora/Vorbis
UVZN_30T2_856_755_993,1991-07-12,Arthur Dent,Collection,PDF 1.7
TYLR_69U7_467_683_221,1931-05-19,Arthur Dent,StillImage,PDF 1.4
HCNZ_77P6_556_499_260,1944-04-30,Arthur Dent,InteractiveResource,TIFF 6.0
WYWR_15p5_152_379_184,2024-01-30,Arthur Dent,StillImage,PDF 1.0
HQIR_84t2_083_721_066,1947-07-13,Arthur Dent,Software,SVG UTF-8 1.0
ZKPU_32q7_184_823_038,2014-10-03,Arthur Dent,Service,PDF 1.2
ACCL_59z8_184_386_566,1947-02-18,Arthur Dent,Collection,MPEG-4 AVC/AAC
CTXJ_28V5_343_400_362,1920-02-27,Arthur Dent,PhysicalObject,GIF 89a
ISSG_74C4_585_273_038,1986-07-21,Arthur Dent,Event,ODS 1.0
VJDL_72m9_756_997_625,2002-03-31,Arthur Dent,Collection,PDF 1.2
LZHZ_83m3_098_724_253,1992-04-01,Arthur Dent,Sound,MPEG-4 AVC/AAC LC
UCLV_23r7_445_140_118,1924-01-27,Arthur Dent,Sound,GIF 89a
PDFF_10R3_411_956_503,1923-10-13,Arthur Dent,InteractiveResource,XML UTF-8 1.0
GUPC_32l6_094_364_552,1910-07-06,Arthur Dent,Dataset,GIF 89a
ICRS_05S7_949_171_233,1996-08-23,Arthur Dent,Text,MPEG-4 AVC/AAC LC
YAMA_40P3_287_600_540,1990-09-13,Arthur Dent,Sound,AAC AAC
ARIX_94f4_947_088_753,1984-11-08,Arthur Dent,Software,PNG 1.1
SDLK_72R6_864_322_304,1974-08-01,Arthur Dent,Software,PDFA 3a
VAIK_09Q3_496_020_408,2023-03-03,Arthur Dent,Dataset,PDFA 2b
FNST_72X7_636_596_269,1911-02-19,Arthur Dent,Dataset,SVG UTF-8 1.1
OOZB_29J2_636_250_898,1967-07-05,Arthur Dent,Event,XSD
EZNG_64X5_650_146_785,2003-09-22,Arthur Dent,StillImage,ODT 1.0
SBEC_37n8_677_691_690,1921-03-25,Arthur Dent,Service,TEI UTF-8 3.1.0
WGWR_51q4_639_515_674,2018-07-31,Arthur Dent,Collection,PDF 1.0
THHT_13s4_007_112_421,1942-06-03,Arthur Dent,InteractiveResource,JPEG2000
KUSI_39H3_775_644_220,1919-02-26,Arthur Dent,Text,JPEG 1.02
VAEK_95r8_809_121_654,1911-05-03,Arthur Dent,InteractiveResource,TEI UTF-8 3.1.0
BZCO_48s9_907_324_177,1979-07-02,Arthur Dent,Service,PDFA 2a
FYWE_53T3_369_864_567,1922-12-03,Arthur Dent,PhysicalObject,XDMF
UTIT_29O5_869_552_663,1925-08-05,Arthur Dent,PhysicalObject,PDFA 2b
XKDG_70y7_242_975_283,1922-10-28,Arthur Dent,Software,JPEG 1.00
AQAX_33x7_329_088_909,1963-05-28,Arthur Dent,Text,JPEG
PRJB_29F5_546_274_278,2024-06-12,Arthur Dent,Image,AAC AAC
LMZB_66B6_052_355_542,1926-10-17,Arthur Dent,Software,APNG
