{
  "title": "Spécification des colonnes obligatoires pour un dépôt massif sur Nakala",
  "author": "Michael Nauge",
  "contributor": "",
  "version": "1.0",
  "created": "2018-02-13",
  "description": "Spécification des colonnes obligatoires pour un dépôt massif sur Nakala",
  "homepage": "",
  "uri": "",
  "previous": "",
  "example": "",
  "fields": [
    {
      "name": "dcterms:title",
      "title": "Titre",
      "type": "string",
      "description": "Le titre de la ressource. Obligatoire. Doit être unique. Proche d'un système de côte archivistique",
      "examples": "Por Favor_1974_ano-1_num-2",
      "constraints": {
        "required": true,
		"unique":true
		}
    },
    {
      "name": "dcterms:created",
      "title": "Date de création",
      "type": "date",
      "description": "YYYY-MM-DD",
      "examples": "1986-02-16",
      "constraints": {
        "required": true
		}
    },	
    {
      "name": "dcterms:creator",
      "title": "Nom de l'auteur de la ressource",
      "type": "string",
      "description": "Nous parlons ici du nom de l'auteur de la ressource physique (ou numérique ?!)",
	  "examples": "Ilario, José (1936-)",
      "constraints": {
        "required": true,
        "pattern": "^.*$"
		}
     },
    {
      "name": "nkl:dataType",
      "title": "type de la ressource numérique",
      "type": "string",
      "description": "Obligatoire. doit contenir une valeur de la liste : Collection, Dataset, Event, Image, InteractiveResource, MovingImage, PhysicalObject, Service, Software, Sound, StillImage, Text. Attention une image de page contenant du texte doit être du type Text !",
      "examples": "Text, Image",
	  "constraints": {
        "required": true,
        "pattern": "^(Collection|Dataset|Event|Image|InteractiveResource|MovingImage|PhysicalObject|Service|Software|Sound|StillImage|Text)$"
      }
    },	
    {
      "name": "nkl:dataFormat",
      "title": "format de la ressource numérique",
      "type": "string",
      "description": "Obligatoire. Doit contenir une valeur de la liste du CINES",
      "examples": "PDF, TIFF, ...",
	  "constraints": {
        "required": true,
        "pattern": "^(AAC AAC|AIFF PCM|APNG|DAE UTF-8 1\\.4\\.1|FLAC FLAC 1\\.2\\.1|GIF 87a|GIF 89a|GeoTIFF|HDF5 1\\.0|HDF5 2\\.0|JPEG|JPEG2000|JPEG 1\\.00|JPEG 1\\.01|JPEG 1\\.02|MKV AVC/FLAC|MPEG-4 AAC|MPEG-4 AVC|MPEG-4 AVC/AAC|MPEG-4 AVC/AAC LC|ODS 1\\.0|ODS 1\\.1|ODS 1\\.2|ODT 1\\.0|ODT 1\\.1|ODT 1\\.2|OGG Theora/Vorbis|OGG Vorbis|PDFA 1a|PDFA 1b|PDFA 2a|PDFA 2u|PDFA 2b|PDFA 3a|PDF 1\\.0|PDF 1\\.1|PDF 1\\.2|PDF 1\\.3|PDF 1\\.4|PDF 1\\.5|PDF 1\\.6|PDF 1\\.7|PLY ASCII 1\\.0|PNG 1\\.0|PNG 1\\.1|PNG 1\\.2|SIARD|SVG UTF-8 1\\.0|SVG UTF-8 1\\.1|SVG UTF-8 1\\.2|TEI UTF-8 3\\.0\\.0|TEI UTF-8 3\\.1\\.0|TIFF|TIFF 4\\.0|TIFF 5\\.0|TIFF 6\\.0|TXT UTF-8|WAV|XDMF|XML UTF-8 1\\.0|XSD)$"
		}
    }
    
  ]
}
